160 611 72

640

0 81 17 4
0 22 12 2
0 20 8 3
0 150 31 3
0 13 19 10
0 6 47 5
0 5 31 6
0 3 42 4
0 1 8 1
1 150 31 9
1 81 9 9
1 17 4 5
1 14 30 2
2 3 43 6
2 4 42 1
3 4 26 4
6 7 17 4
6 8 25 9
6 9 50 10
6 10 41 8
7 8 39 5
7 9 11 5
7 10 45 2
8 9 41 3
8 10 11 2
9 10 44 1
11 12 12 4
11 13 34 3
12 13 46 1
14 15 30 9
16 17 9 8
16 18 39 10
16 19 21 8
17 18 24 2
17 19 7 9
18 19 28 9
20 29 24 6
20 26 15 7
20 21 13 7
20 22 46 4
20 23 37 7
20 24 47 6
20 25 40 10
21 82 30 10
21 45 40 9
21 41 8 4
21 38 38 3
21 36 44 7
21 32 39 2
21 22 9 6
21 23 35 2
21 24 44 7
21 25 25 9
22 50 3 10
22 47 42 4
22 23 23 8
22 24 2 5
22 25 36 3
23 150 42 7
23 80 48 4
23 55 39 4
23 54 16 2
23 24 20 4
23 25 6 7
24 70 49 2
24 65 4 9
24 61 32 4
24 59 16 8
24 25 17 9
25 150 42 8
25 77 19 1
25 75 50 2
25 71 8 5
27 28 32 6
27 29 25 9
27 30 20 9
27 31 5 3
28 29 48 2
28 30 17 8
28 31 11 3
29 30 33 2
29 31 16 1
30 31 45 3
32 33 16 9
32 34 14 1
32 35 37 9
33 34 28 5
33 35 18 7
34 35 16 1
37 38 10 3
37 39 21 10
37 40 13 8
38 39 32 1
38 40 39 7
39 40 19 2
42 43 23 1
42 44 13 2
42 45 27 7
42 46 19 7
43 44 8 5
43 45 11 2
43 46 40 8
44 45 11 9
44 46 20 4
45 46 34 1
47 48 49 1
47 49 12 3
48 49 45 10
50 51 46 9
50 52 27 4
51 52 37 7
53 54 36 4
55 56 33 8
55 57 35 9
55 58 1 2
56 57 10 2
56 58 11 2
57 58 9 1
60 61 20 5
62 63 39 3
62 64 7 5
62 65 33 1
62 66 47 3
62 67 37 1
63 64 17 5
63 65 1 2
63 66 30 5
63 67 45 2
64 65 24 10
64 66 30 7
64 67 25 8
65 66 13 9
65 67 41 5
66 67 41 3
68 69 26 5
68 70 1 10
69 70 49 8
71 72 37 9
71 73 27 4
72 73 9 2
74 75 29 9
76 77 36 8
76 78 47 3
76 79 24 1
77 78 34 4
77 79 35 6
78 79 30 2
80 150 31 4
80 92 34 5
80 89 30 2
80 87 19 2
80 81 11 9
80 82 36 5
80 83 47 2
80 84 45 5
80 85 43 10
80 86 26 1
81 96 5 2
81 82 25 9
81 83 24 9
81 84 43 5
81 85 2 6
81 86 15 2
82 100 30 2
82 83 40 3
82 84 50 5
82 85 19 9
82 86 38 3
83 110 12 6
83 108 9 3
83 107 17 2
83 103 6 5
83 84 44 2
83 85 3 1
83 86 29 4
84 128 46 3
84 126 41 1
84 124 5 9
84 123 28 3
84 122 17 7
84 115 20 1
84 85 50 9
84 86 38 6
85 143 26 2
85 141 50 2
85 138 7 8
85 132 16 9
85 86 10 9
86 148 8 9
86 145 23 10
88 89 26 10
88 90 23 3
88 91 37 10
89 90 46 7
89 91 33 6
90 91 33 9
92 93 14 4
92 94 18 9
92 95 40 8
93 94 31 8
93 95 30 9
94 95 41 5
96 97 47 7
96 98 35 2
97 98 44 10
99 100 36 7
99 101 1 9
100 101 33 7
102 103 2 9
102 104 6 1
103 104 47 3
105 106 15 8
105 107 6 2
106 107 48 6
109 110 5 6
109 111 37 6
109 112 12 5
109 113 1 6
110 111 46 8
110 112 23 3
110 113 44 5
111 112 35 3
111 113 33 9
112 113 40 7
114 115 38 6
114 116 18 10
114 117 25 7
114 118 34 8
114 119 11 4
115 116 9 9
115 117 25 9
115 118 41 8
115 119 6 2
116 117 5 9
116 118 18 6
116 119 18 1
117 118 6 1
117 119 28 8
118 119 6 5
120 121 29 7
120 122 26 2
121 122 27 9
125 126 7 2
127 128 1 2
127 129 3 3
127 130 8 4
127 131 48 7
128 129 1 2
128 130 46 3
128 131 17 10
129 130 31 7
129 131 36 3
130 131 30 3
132 133 48 6
132 134 47 10
133 134 47 7
135 136 17 9
135 137 31 2
135 138 14 2
135 139 47 2
136 137 38 1
136 138 48 7
136 139 14 9
137 138 40 5
137 139 12 2
138 139 40 7
140 141 47 3
140 142 1 3
141 142 47 3
144 145 21 9
144 146 2 5
145 146 22 1
147 148 18 7
147 149 47 7
148 149 9 10
150 159 2 10
150 157 44 4
150 151 7 10
151 152 10 6
153 154 33 10
153 155 46 4
153 156 11 9
153 157 36 4
154 155 16 9
154 156 30 9
154 157 31 7
155 156 49 5
155 157 32 5
156 157 46 7
158 159 40 6
83 24 4 6
83 100 7 5
0 37 21 10
21 105 4 4
83 56 26 9
22 153 5 4
80 15 3 10
20 129 3 5
25 137 4 10
1 101 18 9
81 78 16 1
21 56 45 6
0 48 29 8
84 61 45 7
20 38 38 8
25 40 24 10
82 126 33 10
80 146 29 1
82 14 31 3
1 9 48 7
83 105 25 1
85 34 27 1
86 112 10 2
25 153 17 5
85 129 12 1
81 70 5 3
22 70 34 5
81 18 6 6
80 148 44 10
81 56 20 5
22 71 3 4
21 100 4 9
86 69 12 10
24 76 2 10
0 14 27 1
21 130 38 8
23 137 29 3
24 130 37 7
23 56 21 8
0 59 8 8
80 42 18 10
81 14 18 10
84 118 28 8
21 113 35 9
83 65 18 6
150 146 44 1
84 104 3 2
25 42 11 3
1 3 14 1
150 104 19 10
81 93 49 7
80 154 27 8
21 125 48 9
80 114 30 3
25 122 46 9
22 119 42 8
83 106 6 10
85 135 50 1
83 155 3 5
1 29 12 1
25 128 20 3
0 7 24 2
86 68 37 10
23 45 21 2
83 109 47 1
24 37 42 3
20 30 22 8
22 62 5 6
83 31 2 3
20 148 19 6
81 26 39 2
82 120 41 10
0 40 33 2
24 29 25 4
22 55 42 8
86 87 41 4
24 115 2 1
20 151 10 4
0 62 44 5
82 32 4 1
23 141 15 6
82 62 19 3
22 100 21 9
0 73 47 1
21 67 46 4
24 4 41 2
82 9 7 7
82 125 6 10
86 65 28 2
86 90 27 8
84 134 14 9
150 155 43 3
24 41 47 4
150 5 30 7
1 139 21 7
25 151 43 1
81 53 23 10
86 9 7 1
80 113 48 4
0 146 50 3
23 65 29 3
82 72 17 2
86 95 11 8
84 12 23 1
82 15 12 10
24 95 11 6
23 149 48 9
150 9 23 4
150 52 29 4
25 103 47 2
21 29 47 5
24 38 34 10
84 37 48 4
21 55 22 10
80 29 17 2
82 142 16 4
0 118 2 8
23 132 39 7
81 28 23 5
1 132 13 2
24 16 39 6
84 59 14 2
23 105 6 6
85 95 13 8
81 143 37 3
85 104 25 8
86 27 38 7
0 67 35 3
23 28 40 2
20 54 15 7
82 40 7 2
85 40 29 3
85 64 38 5
82 153 19 9
1 97 36 9
81 95 42 1
22 69 35 2
85 31 8 9
80 90 12 9
25 47 22 6
150 152 21 5
20 15 31 9
83 139 9 1
22 60 1 10
23 93 8 8
84 131 20 1
86 15 48 5
1 142 19 7
86 60 8 8
86 107 15 7
1 100 12 6
20 123 38 7
1 109 36 7
25 76 30 4
150 128 12 6
25 35 23 1
150 106 13 9
20 65 42 8
1 149 47 6
85 128 41 8
150 100 41 8
89 122 36 3
100 116 48 5
57 37 19 6
105 39 5 5
56 47 16 10
15 153 28 4
54 158 41 8
15 95 10 8
12 115 19 9
14 63 17 4
129 119 38 8
151 137 43 9
142 66 26 7
101 105 33 2
60 78 40 3
129 97 11 9
56 3 41 5
135 48 27 8
26 126 48 5
61 26 33 1
36 38 40 7
3 112 26 2
40 145 13 9
103 126 29 10
48 54 19 6
146 3 43 2
4 14 30 3
117 135 39 2
9 11 35 9
58 105 7 4
37 56 24 4
34 48 41 9
145 112 7 7
59 123 48 5
153 141 35 5
77 129 8 3
128 42 35 1
70 142 1 7
19 70 43 9
149 26 8 9
18 144 1 8
140 148 13 6
2 28 17 6
56 94 42 8
138 71 32 8
154 34 43 10
100 155 2 5
31 69 12 9
96 132 3 5
76 61 4 10
56 14 4 5
4 7 21 8
130 102 18 6
42 149 2 5
137 156 17 3
117 130 5 9
15 152 31 7
56 6 13 2
88 59 22 1
140 144 36 9
42 38 1 10
72 14 29 7
52 59 9 1
159 74 26 2
70 118 33 10
128 141 3 2
46 113 32 7
31 13 24 6
65 53 7 6
33 146 36 4
157 79 13 8
104 140 13 6
151 42 6 6
133 48 33 2
3 96 38 4
158 104 49 1
43 151 44 9
93 55 20 2
96 154 16 2
125 130 24 6
132 114 35 10
38 30 35 10
122 41 50 6
136 119 5 10
46 12 3 9
106 112 43 10
44 135 48 1
119 95 16 8
155 129 3 9
15 29 40 9
97 126 16 8
128 71 9 2
18 7 40 7
106 130 38 5
68 43 46 7
37 45 49 4
59 63 13 7
109 149 39 4
120 37 17 4
30 67 31 5
30 147 48 1
26 62 37 6
58 70 33 1
31 5 27 8
106 148 36 7
98 127 28 9
26 100 11 9
126 120 23 10
101 65 25 10
40 56 4 8
136 29 24 7
15 101 13 9
55 16 24 7
90 87 29 3
76 73 37 3
115 11 49 4
15 151 32 7
151 32 26 2
62 59 43 9
65 141 3 1
13 115 14 8
32 46 12 3
114 141 36 4
39 49 30 9
62 39 20 9
149 100 50 6
126 3 17 6
73 11 13 2
123 67 42 2
104 40 11 6
4 115 14 9
32 9 32 8
109 7 46 7
125 108 26 2
46 65 16 4
18 78 45 2
70 148 32 4
127 90 44 2
102 16 13 9
134 42 23 5
19 155 2 6
55 30 21 10
41 103 37 3
38 5 34 5
125 75 21 7
139 143 3 8
62 151 43 8
7 65 49 9
53 43 8 9
105 9 7 9
61 47 49 6
113 55 1 8
104 105 37 7
70 147 9 5
146 105 21 2
106 65 13 9
109 19 24 1
72 118 49 10
7 95 4 3
149 118 34 3

0 157 104
1 52 61
2 136 67
3 27 78
4 96 93
5 149 105
6 89 41
7 3 87
8 138 38
9 91 67
10 42 47
11 47 102
12 75 58
13 129 41
14 51 17
15 77 53
16 100 203
17 2 57
18 43 119
19 7 78
20 56 98
21 14 61
22 140 41
23 133 58
24 128 90
25 92 30
26 69 65
27 142 45
28 127 67
29 72 58
30 141 102
31 109 143
32 134 41
33 147 36
34 118 127
35 64 70
36 8 35
37 130 100
38 155 73
39 143 38
40 74 18
41 15 174
42 28 125
43 88 52
44 76 49
45 34 115
46 126 126
47 67 186
48 98 52
49 146 140
50 131 104
51 16 45
52 158 66
53 39 71
54 45 62
55 59 86
56 70 147
57 113 77
58 58 35
59 18 100
60 11 65
61 48 97
62 10 40
63 5 68
64 123 92
65 112 128
66 87 62
67 114 150
68 95 124
69 4 53
70 55 98
71 101 84
