160 614 72

670

0 50 43 10
0 10 25 1
0 8 10 9
0 6 15 3
0 1 30 3
0 2 12 9
0 3 2 2
0 4 36 6
1 101 15 5
1 19 50 2
1 14 41 5
1 2 17 7
1 3 5 7
1 4 1 1
2 24 22 3
2 23 44 7
2 21 39 2
2 3 19 7
2 4 13 5
3 52 12 3
3 81 9 9
3 36 34 9
3 33 40 5
3 29 10 4
3 4 42 1
4 103 33 6
4 80 17 6
4 49 47 2
4 43 45 9
4 42 8 7
4 39 34 10
5 6 2 10
7 8 38 8
7 9 39 6
8 9 26 10
10 11 34 9
10 12 9 2
10 13 11 10
11 12 13 1
11 13 4 2
12 13 14 6
14 15 4 3
14 16 5 3
14 17 23 9
14 18 30 9
15 16 15 1
15 17 20 7
15 18 3 8
16 17 32 10
16 18 39 3
17 18 37 4
20 21 12 3
20 22 45 10
21 22 4 6
24 25 15 8
24 26 25 4
24 27 39 4
24 28 42 4
25 26 1 7
25 27 19 9
25 28 29 2
26 27 25 4
26 28 29 3
27 28 18 9
29 30 40 10
31 32 22 9
31 33 45 5
31 34 40 3
31 35 30 4
32 33 19 8
32 34 24 8
32 35 29 1
33 34 28 5
33 35 46 7
34 35 13 7
36 37 8 4
38 39 26 8
40 41 7 8
40 42 14 7
41 42 1 5
43 44 4 2
45 46 29 4
45 47 24 3
45 48 46 5
45 49 40 10
46 47 13 8
46 48 7 9
46 49 18 1
47 48 14 4
47 49 35 9
48 49 13 5
50 101 29 2
50 55 2 3
50 51 42 2
50 52 25 10
51 81 25 9
51 102 40 4
51 72 39 2
51 70 28 1
51 67 23 7
51 62 22 8
51 58 30 5
51 56 28 7
51 52 28 10
52 81 43 1
52 79 30 5
52 74 40 4
53 54 29 8
53 55 45 1
54 55 41 4
56 57 11 10
58 59 10 5
58 60 30 9
58 61 12 9
59 60 30 10
59 61 38 10
60 61 50 3
62 63 34 3
62 64 44 9
63 64 31 3
65 66 4 3
65 67 5 8
66 67 48 6
68 69 33 8
68 70 12 2
68 71 37 6
69 70 28 3
69 71 50 5
70 71 40 3
72 73 49 2
74 75 13 3
74 76 17 5
74 77 4 5
74 78 38 1
75 76 25 4
75 77 11 5
75 78 32 9
76 77 8 7
76 78 23 3
77 78 12 4
80 105 4 8
80 92 12 10
80 91 39 3
80 89 40 10
80 85 26 9
80 81 44 8
81 98 49 6
81 95 15 4
82 83 13 3
82 84 27 4
82 85 39 5
82 86 24 4
82 87 26 5
82 88 23 7
83 84 7 10
83 85 4 10
83 86 10 3
83 87 49 1
83 88 37 4
84 85 34 1
84 86 25 5
84 87 28 7
84 88 27 4
85 86 29 7
85 87 39 1
85 88 46 5
86 87 16 6
86 88 7 4
87 88 36 9
90 91 20 2
92 93 49 2
94 95 11 3
94 96 1 3
95 96 47 10
97 98 14 8
97 99 47 4
98 99 10 9
100 111 14 5
100 110 33 2
100 106 33 6
100 101 10 8
100 102 21 9
100 103 20 4
100 104 4 5
100 105 6 8
101 121 47 9
101 118 33 2
101 115 48 10
101 102 50 5
101 103 47 9
101 104 45 8
101 105 19 9
102 132 24 6
102 126 19 5
102 124 30 4
102 103 14 3
102 104 1 4
102 105 3 1
103 143 39 6
103 137 26 7
103 136 9 2
103 133 48 5
103 104 32 7
103 105 49 6
104 147 16 1
104 145 33 8
104 105 44 1
105 159 36 2
105 158 1 8
105 155 1 3
106 107 11 7
108 109 32 6
108 110 2 7
109 110 17 8
111 112 27 6
111 113 46 8
111 114 41 7
112 113 25 9
112 114 29 6
113 114 7 5
116 117 38 2
116 118 12 6
116 119 32 4
117 118 15 5
117 119 5 7
118 119 28 10
120 121 29 2
120 122 50 6
120 123 18 7
121 122 4 4
121 123 32 3
122 123 8 1
124 125 16 5
126 127 23 7
126 128 4 5
126 129 16 9
126 130 3 10
126 131 21 6
127 128 11 6
127 129 13 6
127 130 16 10
127 131 8 9
128 129 26 5
128 130 2 6
128 131 11 2
129 130 8 5
129 131 6 3
130 131 43 4
133 134 43 7
133 135 42 2
134 135 21 9
137 138 19 4
137 139 11 3
137 140 43 4
137 141 46 7
137 142 7 9
138 139 46 7
138 140 14 9
138 141 28 7
138 142 10 4
139 140 47 7
139 141 11 3
139 142 29 1
140 141 46 5
140 142 14 3
141 142 17 3
143 144 13 1
146 147 25 10
146 148 3 5
146 149 3 10
146 150 36 2
147 148 11 10
147 149 26 8
147 150 38 10
148 149 35 7
148 150 4 8
149 150 4 6
151 152 14 9
151 153 19 10
151 154 34 10
151 155 31 10
152 153 14 7
152 154 10 9
152 155 46 1
153 154 12 7
153 155 9 7
154 155 46 6
156 157 44 9
156 158 17 2
157 158 17 5
101 51 47 9
80 0 45 1
2 81 17 3
3 51 8 7
101 95 27 4
0 34 22 5
3 106 19 2
101 56 28 1
4 153 11 2
80 18 28 1
102 116 42 4
2 130 41 2
52 138 1 6
1 96 26 10
81 78 42 5
3 56 21 1
0 45 49 9
102 61 24 9
2 35 1 9
52 37 35 10
100 127 15 1
80 147 12 1
100 17 50 1
1 12 45 5
101 106 30 8
103 31 30 2
104 113 44 10
52 153 50 7
103 130 38 2
81 70 38 9
4 70 25 2
81 21 31 9
80 149 7 3
81 56 47 2
4 71 30 8
3 95 28 2
104 69 47 9
51 76 34 10
0 17 5 1
3 131 12 9
50 138 21 5
51 131 23 2
50 56 1 3
0 59 30 5
80 39 28 10
81 17 45 8
102 119 27 7
102 129 13 9
3 114 14 5
101 65 47 5
105 147 26 4
102 99 23 10
52 39 5 1
1 6 14 7
105 99 41 6
81 88 39 9
80 154 11 2
3 126 39 3
80 115 28 3
52 123 9 8
4 120 28 2
101 107 2 8
101 155 23 4
1 26 33 1
52 129 30 10
104 68 1 5
50 42 36 2
101 110 36 5
51 34 29 8
2 27 47 5
4 62 31 4
101 28 20 8
2 149 18 9
81 23 13 9
100 121 34 5
0 37 44 1
51 26 16 7
4 55 45 10
104 82 39 4
51 116 24 8
2 151 33 10
0 62 48 1
103 142 25 7
100 29 19 10
50 142 49 8
100 62 18 7
4 95 22 7
0 73 38 7
3 67 42 7
51 7 16 1
100 12 47 3
100 126 9 4
104 65 43 7
104 85 50 8
102 135 40 7
51 38 3 2
105 8 20 7
1 140 41 4
52 151 19 5
81 53 32 1
104 12 26 6
80 114 48 4
0 147 49 1
50 65 18 7
100 72 19 7
104 90 33 2
102 15 29 6
100 18 2 5
51 90 21 4
1 150 25 1
105 49 17 3
2 98 32 5
101 26 44 2
100 35 4 10
104 34 19 8
52 26 50 7
81 143 42 1
80 119 4 6
52 133 40 2
1 25 22 4
100 19 44 2
102 59 6 4
4 106 4 2
103 90 2 2
80 144 26 5
103 99 36 5
104 24 47 3
0 67 44 2
81 25 24 2
81 54 39 5
103 37 38 6
4 64 23 3
102 92 19 7
81 90 44 3
4 69 13 3
105 28 1 10
52 85 42 1
2 44 17 7
103 152 31 9
104 18 8 4
0 140 22 2
0 60 6 3
50 88 49 5
105 132 26 10
52 18 4 3
105 60 29 10
80 108 11 10
103 95 21 8
100 124 40 2
2 153 36 3
104 56 19 10
50 110 18 6
3 76 35 4
104 31 8 9
105 129 11 9
103 32 20 10
80 107 10 3
2 65 39 9
3 150 30 3
50 95 32 3
105 58 26 2
3 65 26 9
2 29 49 10
105 139 27 3
84 123 7 8
95 117 33 9
57 34 15 4
116 120 43 7
106 36 44 3
56 44 11 8
18 153 32 5
54 158 30 2
18 90 45 8
15 116 44 7
17 63 28 1
130 120 21 7
151 138 39 5
143 66 18 5
96 106 14 7
60 78 17 6
130 92 25 7
56 6 47 10
136 45 3 1
23 127 2 3
61 23 6 5
6 113 2 5
37 146 4 2
98 127 44 7
45 54 26 2
147 6 14 2
7 17 20 6
118 136 20 7
12 14 5 9
58 106 39 6
34 56 35 1
31 45 2 8
146 113 37 3
59 124 21 6
153 142 49 10
77 130 14 8
129 39 32 3
70 143 31 6
22 70 8 9
150 23 41 8
21 145 10 7
141 149 50 5
5 25 13 8
56 89 41 8
139 71 22 8
154 31 26 6
95 155 48 10
28 69 32 4
91 133 8 6
76 61 23 2
56 17 12 8
7 10 9 10
131 97 45 2
39 150 40 8
138 156 35 7
118 131 20 4
18 152 12 6
56 9 21 6
83 59 12 3
141 145 12 4
39 35 7 8
72 17 48 8
49 59 10 8
159 74 39 10
70 119 39 8
129 142 25 4
43 114 21 7
28 16 19 4
65 53 39 5
30 147 39 5
157 79 10 1
99 141 43 7
151 39 17 3
134 45 15 7
6 91 26 10
158 99 23 7
40 151 5 1
88 55 11 8
91 154 38 6
133 115 48 2
35 27 4 1
123 38 7 8
137 120 23 7
43 15 13 7
107 113 12 3
41 136 37 10
120 90 16 9
155 130 13 3
18 26 47 1
92 127 37 1
129 71 12 8
21 10 14 5
107 131 21 9
68 40 29 8
34 42 20 3
59 63 20 3
110 150 34 8
121 34 43 10
27 67 13 3
27 148 40 1
23 62 41 1
58 70 32 1
28 8 30 6
107 149 21 2
93 128 49 2
23 95 15 9
127 121 13 7
96 65 30 9
37 56 43 2
137 26 50 2
18 96 3 2
55 19 47 7
76 73 38 8
116 14 29 9
18 151 9 10
151 29 16 1
62 59 22 10
65 142 13 10
16 116 4 10
29 43 4 7
115 142 26 3
36 46 39 5
62 36 31 8
150 95 4 4
127 6 36 5
73 14 19 10
124 67 30 9
99 37 28 4
7 116 27 8
29 12 45 10
110 10 43 5
126 109 3 8
43 65 29 8
21 78 39 3
70 149 39 5
128 85 41 10
97 19 38 4
135 39 43 9
22 155 49 5
55 27 42 2
38 98 17 6
35 8 1 2
126 75 2 1
140 144 47 8
62 151 23 9
10 65 30 1
53 40 19 6
106 12 29 6
61 44 46 8
114 55 48 8
99 106 43 8
70 148 33 9
147 106 36 4
107 65 23 6
110 22 5 6
72 119 43 5
10 90 16 9
150 119 9 5
15 48 10 2
13 18 49 10

0 69 46
1 73 61
2 68 50
3 43 27
4 63 60
5 49 46
6 9 21
7 13 36
8 91 76
9 137 116
10 150 114
11 114 67
12 145 29
13 148 27
14 55 84
15 42 36
16 132 33
17 20 20
18 45 128
19 118 36
20 119 130
21 106 82
22 24 104
23 5 9
24 64 37
25 71 61
26 6 97
27 31 136
28 65 89
29 147 147
30 44 42
31 108 21
32 111 32
33 46 31
34 123 32
35 16 44
36 67 100
37 62 213
38 7 79
39 75 44
40 82 44
41 92 37
42 144 58
43 98 103
44 120 59
45 35 79
46 152 67
47 19 107
48 99 97
49 140 79
50 90 120
51 158 33
52 36 78
53 129 71
54 122 41
55 146 56
56 142 163
57 54 84
58 26 200
59 155 77
60 10 104
61 39 76
62 156 61
63 141 54
64 58 92
65 83 86
66 134 25
67 130 108
68 115 53
69 128 85
70 110 88
71 113 95
