800 3016 360

1400

0 349 30 5
0 16 11 6
0 14 16 10
0 1 34 6
0 2 47 7
0 3 14 6
0 4 16 9
0 5 18 4
0 6 34 6
0 7 17 1
0 8 20 2
0 9 23 9
0 10 20 2
1 23 26 2
1 21 50 9
1 19 44 2
1 2 26 5
1 3 7 6
1 4 41 5
1 5 34 9
1 6 36 2
1 7 41 8
1 8 18 9
1 9 20 3
1 10 40 3
2 685 50 7
2 446 12 5
2 543 1 10
2 39 16 10
2 38 33 1
2 36 48 2
2 30 18 6
2 27 29 2
2 3 33 10
2 4 13 2
2 5 8 5
2 6 2 7
2 7 14 7
2 8 42 7
2 9 13 5
2 10 26 10
3 112 10 3
3 293 26 6
3 594 19 6
3 55 49 10
3 49 8 7
3 47 10 1
3 43 34 4
3 41 31 7
3 4 49 6
3 5 4 10
3 6 32 9
3 7 12 10
3 8 42 9
3 9 32 9
3 10 38 8
4 62 2 10
4 61 23 7
4 58 18 7
4 5 41 9
4 6 28 6
4 7 33 3
4 8 6 8
4 9 8 2
4 10 30 1
5 447 16 5
5 202 13 10
5 206 15 10
5 345 31 6
5 66 7 9
5 6 22 2
5 7 23 5
5 8 25 4
5 9 25 7
5 10 40 8
6 544 13 6
6 291 16 7
6 112 35 5
6 73 21 2
6 69 17 2
6 7 31 9
6 8 16 5
6 9 6 1
6 10 15 5
7 754 5 9
7 78 23 7
7 74 44 8
7 8 15 8
7 9 16 10
7 10 18 6
8 81 16 5
8 9 42 1
8 10 16 8
9 594 46 7
9 99 15 10
9 89 46 6
9 88 41 1
9 87 6 1
9 86 29 1
9 84 3 8
9 10 25 10
10 754 31 8
10 680 33 9
10 109 11 8
10 108 26 9
10 101 7 3
11 12 48 3
11 13 41 2
11 14 18 2
12 13 40 1
12 14 4 9
13 14 28 2
15 16 44 6
17 18 18 6
17 19 48 10
17 20 3 5
18 19 44 8
18 20 5 10
19 20 16 10
22 23 8 8
22 24 47 5
22 25 18 8
23 24 10 5
23 25 45 5
24 25 6 9
26 27 7 5
28 29 7 1
28 30 34 6
29 30 32 2
31 32 25 2
31 33 24 10
31 34 3 1
31 35 31 4
31 36 25 1
32 33 39 8
32 34 5 7
32 35 5 9
32 36 39 9
33 34 28 3
33 35 29 1
33 36 17 5
34 35 19 4
34 36 36 3
35 36 39 9
37 38 40 8
39 40 11 5
41 42 43 1
43 44 38 3
43 45 8 5
43 46 16 3
44 45 8 1
44 46 7 10
45 46 17 4
48 49 40 10
48 50 17 7
48 51 10 5
48 52 4 10
49 50 26 10
49 51 33 2
49 52 43 10
50 51 43 6
50 52 20 9
51 52 40 3
53 54 26 4
53 55 23 7
54 55 32 9
56 57 28 1
56 58 2 1
56 59 10 1
56 60 27 4
57 58 50 1
57 59 43 9
57 60 27 10
58 59 11 7
58 60 32 10
59 60 50 6
62 63 10 6
62 64 25 2
63 64 29 6
65 66 15 7
65 67 2 8
66 67 37 7
68 69 49 5
70 71 40 8
70 72 19 8
70 73 39 3
71 72 31 4
71 73 2 3
72 73 46 8
75 76 31 5
75 77 16 8
75 78 49 3
75 79 42 8
76 77 11 4
76 78 2 5
76 79 22 2
77 78 7 9
77 79 1 1
78 79 42 9
80 81 6 8
80 82 14 1
81 82 43 5
83 84 35 10
83 85 10 2
84 85 47 10
89 90 8 1
89 91 4 9
90 91 30 9
92 93 38 6
92 94 12 3
92 95 34 2
92 96 13 3
92 97 22 2
92 98 22 1
92 99 14 3
92 100 10 10
93 94 24 9
93 95 41 9
93 96 28 2
93 97 26 5
93 98 38 3
93 99 50 7
93 100 42 5
94 95 43 10
94 96 36 10
94 97 36 10
94 98 47 3
94 99 37 8
94 100 50 3
95 96 21 3
95 97 18 7
95 98 26 1
95 99 9 6
95 100 43 8
96 97 29 3
96 98 10 3
96 99 10 8
96 100 38 1
97 98 20 9
97 99 23 6
97 100 19 8
98 99 3 1
98 100 38 7
99 100 31 3
101 102 5 4
101 103 15 5
102 103 30 4
104 105 32 6
104 106 13 2
104 107 10 7
104 108 22 3
105 106 10 2
105 107 18 8
105 108 19 3
106 107 39 6
106 108 3 5
107 108 11 7
110 444 50 1
110 206 43 1
110 126 29 9
110 124 18 9
110 120 24 7
110 111 7 8
110 112 44 7
110 113 23 2
110 114 38 9
110 115 7 6
110 116 18 9
110 117 20 4
110 118 33 10
111 294 50 5
111 594 40 9
111 753 17 5
111 145 13 6
111 144 27 9
111 139 20 3
111 135 27 2
111 134 16 9
111 128 36 3
111 112 4 2
111 113 14 8
111 114 39 5
111 115 14 10
111 116 48 6
111 117 29 1
111 118 45 4
112 598 13 7
112 147 50 3
112 113 29 2
112 114 26 5
112 115 13 5
112 116 46 2
112 117 2 2
112 118 13 5
113 201 8 4
113 293 50 8
113 150 42 7
113 114 17 5
113 115 38 4
113 116 30 3
113 117 19 7
113 118 2 9
114 683 28 6
114 343 27 1
114 442 44 3
114 152 50 6
114 115 49 6
114 116 14 7
114 117 9 9
114 118 48 6
115 540 19 8
115 346 16 10
115 686 22 5
115 159 20 3
115 155 26 2
115 116 1 5
115 117 2 10
115 118 31 6
116 178 2 3
116 177 39 4
116 176 10 1
116 171 38 6
116 168 50 7
116 167 9 3
116 117 38 6
116 118 23 2
117 183 24 10
117 179 45 9
117 118 15 4
118 754 43 6
118 542 11 7
118 198 12 1
118 196 33 3
118 195 14 7
118 191 15 7
118 186 20 4
119 120 41 8
121 122 15 3
121 123 44 9
121 124 13 8
122 123 48 6
122 124 7 10
123 124 24 4
125 126 18 1
125 127 4 5
126 127 14 7
128 129 5 1
130 131 19 3
130 132 39 2
130 133 30 6
130 134 23 6
131 132 46 4
131 133 20 10
131 134 32 8
132 133 50 1
132 134 30 8
133 134 40 2
135 136 30 7
137 138 44 4
137 139 2 1
137 140 21 7
137 141 47 9
137 142 31 1
138 139 11 5
138 140 12 5
138 141 28 6
138 142 44 5
139 140 29 9
139 141 48 3
139 142 41 1
140 141 41 1
140 142 25 6
141 142 37 2
143 144 21 10
146 147 36 8
146 148 25 7
147 148 36 6
149 150 21 3
149 151 28 9
150 151 38 1
152 153 19 1
152 154 38 10
153 154 20 8
155 156 22 7
155 157 25 10
155 158 13 3
156 157 34 4
156 158 9 7
157 158 4 4
159 160 5 8
161 162 21 8
161 163 42 10
161 164 3 2
161 165 31 10
161 166 47 4
161 167 35 5
162 163 21 6
162 164 7 1
162 165 40 6
162 166 46 2
162 167 46 3
163 164 3 10
163 165 10 6
163 166 5 7
163 167 47 10
164 165 31 5
164 166 35 2
164 167 14 7
165 166 42 9
165 167 25 6
166 167 11 10
168 169 19 9
168 170 42 1
169 170 17 2
171 172 1 8
171 173 23 9
171 174 18 1
171 175 39 6
172 173 30 3
172 174 31 4
172 175 50 9
173 174 37 2
173 175 44 8
174 175 9 10
179 180 29 8
179 181 17 10
179 182 4 1
180 181 45 7
180 182 49 2
181 182 39 1
183 184 35 5
185 186 24 7
185 187 6 6
185 188 9 4
186 187 49 6
186 188 10 1
187 188 6 1
189 190 11 7
189 191 37 3
189 192 32 6
189 193 48 9
190 191 16 5
190 192 36 2
190 193 37 2
191 192 42 1
191 193 26 10
192 193 23 5
194 195 36 8
196 197 10 7
198 199 7 9
200 442 2 8
200 540 18 1
200 223 37 5
200 220 22 3
200 218 39 7
200 214 39 10
200 209 43 3
200 201 45 3
200 202 49 4
200 203 12 5
200 204 14 3
200 205 49 9
200 206 47 10
200 207 15 1
200 208 20 5
201 753 41 9
201 541 23 10
201 754 38 8
201 224 20 8
201 202 20 7
201 203 41 6
201 204 40 1
201 205 30 5
201 206 4 5
201 207 44 3
201 208 7 4
202 348 16 3
202 290 6 3
202 598 45 5
202 228 39 1
202 203 18 10
202 204 29 6
202 205 34 5
202 206 26 7
202 207 23 9
202 208 9 8
203 232 20 9
203 204 33 10
203 205 33 1
203 206 34 8
203 207 40 5
203 208 14 3
204 248 49 8
204 244 30 9
204 242 28 4
204 236 4 4
204 235 44 10
204 233 3 8
204 205 11 7
204 206 27 10
204 207 25 8
204 208 35 3
205 271 1 4
205 267 46 3
205 262 49 9
205 259 21 4
205 256 16 4
205 255 17 8
205 254 14 2
205 206 3 7
205 207 28 1
205 208 35 6
206 686 43 2
206 442 20 7
206 293 49 8
206 684 10 10
206 273 15 10
206 207 39 7
206 208 6 9
207 283 36 10
207 282 1 3
207 278 1 7
207 208 14 2
208 597 43 10
208 343 21 1
208 285 47 10
208 284 6 3
209 210 10 3
209 211 10 7
210 211 48 9
212 213 27 7
212 214 40 9
212 215 10 3
213 214 50 2
213 215 6 2
214 215 49 8
216 217 32 9
216 218 6 10
217 218 47 2
219 220 10 2
221 222 25 10
221 223 25 3
222 223 41 3
224 225 9 9
224 226 20 10
225 226 33 5
227 228 35 2
227 229 1 5
228 229 37 8
230 231 18 2
230 232 25 8
231 232 19 8
234 235 38 7
236 237 31 7
236 238 36 4
236 239 17 7
236 240 5 8
236 241 38 6
237 238 27 9
237 239 35 2
237 240 36 8
237 241 47 8
238 239 19 7
238 240 31 6
238 241 9 7
239 240 24 4
239 241 26 2
240 241 31 2
242 243 22 5
244 245 3 9
246 247 4 7
246 248 26 9
246 249 49 4
246 250 3 2
247 248 41 7
247 249 36 7
247 250 38 2
248 249 1 7
248 250 19 3
249 250 48 3
251 252 23 9
251 253 44 3
251 254 38 5
252 253 45 1
252 254 11 8
253 254 15 6
256 257 30 6
258 259 44 5
258 260 23 9
259 260 32 7
261 262 35 7
261 263 22 5
261 264 29 8
261 265 15 7
262 263 36 8
262 264 2 3
262 265 43 7
263 264 50 9
263 265 50 3
264 265 41 4
266 267 48 7
266 268 27 1
267 268 28 6
269 270 22 10
269 271 39 9
270 271 14 7
272 273 24 10
272 274 35 4
273 274 5 8
275 276 32 1
275 277 45 6
275 278 35 8
276 277 17 10
276 278 16 4
277 278 22 4
279 280 33 7
279 281 42 2
279 282 26 5
280 281 24 6
280 282 22 6
281 282 40 5
285 286 46 10
285 287 48 6
285 288 47 9
285 289 30 1
286 287 2 7
286 288 17 10
286 289 20 2
287 288 42 10
287 289 32 6
288 289 28 3
290 448 1 5
290 753 48 6
290 305 5 3
290 299 14 6
290 298 30 4
290 296 48 7
290 291 36 1
290 292 29 7
290 293 29 10
290 294 47 10
291 540 33 1
291 321 30 8
291 318 46 7
291 316 5 7
291 310 40 7
291 308 50 3
291 292 7 6
291 293 30 4
291 294 22 5
292 544 16 8
292 343 28 10
292 593 8 5
292 683 32 6
292 324 48 10
292 293 6 10
292 294 6 9
293 596 21 10
293 344 20 8
293 444 32 6
293 329 42 10
293 327 32 5
293 294 38 5
294 752 4 7
294 685 2 7
294 339 43 3
294 332 18 1
294 331 37 2
295 296 23 8
295 297 48 3
296 297 33 7
300 301 17 5
300 302 15 4
300 303 5 5
300 304 42 9
300 305 30 10
300 306 25 2
301 302 2 7
301 303 31 2
301 304 48 6
301 305 46 7
301 306 26 5
302 303 31 7
302 304 9 2
302 305 12 10
302 306 32 3
303 304 3 7
303 305 18 6
303 306 12 3
304 305 2 6
304 306 4 8
305 306 16 10
307 308 4 1
309 310 7 7
309 311 38 7
309 312 12 4
310 311 42 7
310 312 22 5
311 312 19 8
313 314 8 7
313 315 3 3
313 316 39 7
314 315 49 9
314 316 43 8
315 316 34 5
317 318 38 1
317 319 45 3
317 320 32 9
318 319 10 4
318 320 50 4
319 320 9 5
322 323 41 1
322 324 50 6
323 324 21 9
325 326 21 10
325 327 5 9
325 328 29 9
326 327 28 7
326 328 10 7
327 328 9 4
329 330 49 10
332 333 9 9
332 334 19 8
333 334 30 2
335 336 39 5
335 337 10 4
335 338 1 1
335 339 43 10
336 337 34 2
336 338 1 7
336 339 41 7
337 338 27 1
337 339 14 1
338 339 38 8
340 594 2 8
340 355 46 9
340 354 5 8
340 341 14 7
340 342 38 7
340 343 20 10
340 344 3 10
340 345 10 8
340 346 2 8
340 347 12 4
340 348 21 7
340 349 46 4
341 750 3 2
341 361 15 6
341 360 49 8
341 342 19 10
341 343 41 6
341 344 35 7
341 345 9 6
341 346 2 10
341 347 18 2
341 348 21 9
341 349 17 10
342 683 15 4
342 375 27 2
342 374 24 6
342 368 4 10
342 367 13 9
342 363 42 9
342 343 28 4
342 344 4 4
342 345 18 9
342 346 8 10
342 347 20 9
342 348 13 4
342 349 31 10
343 543 22 4
343 378 36 8
343 344 46 7
343 345 48 3
343 346 19 4
343 347 44 10
343 348 46 1
343 349 16 2
344 598 12 8
344 382 23 2
344 345 48 4
344 346 27 3
344 347 27 7
344 348 8 2
344 349 6 10
345 753 15 1
345 399 7 1
345 393 43 9
345 391 11 4
345 386 16 10
345 384 35 4
345 383 11 10
345 346 20 2
345 347 2 4
345 348 3 4
345 349 18 10
346 440 41 3
346 405 11 4
346 402 50 8
346 347 7 5
346 348 40 4
346 349 44 1
347 448 2 9
347 541 8 3
347 680 26 2
347 416 49 2
347 413 18 7
347 411 8 8
347 409 50 3
347 348 4 2
347 349 23 6
348 426 31 8
348 425 11 1
348 421 8 8
348 349 44 2
349 437 48 1
349 432 17 4
349 431 41 5
349 428 21 9
350 351 46 7
350 352 6 2
350 353 29 7
350 354 13 8
351 352 13 8
351 353 39 4
351 354 11 9
352 353 16 7
352 354 13 6
353 354 27 10
356 357 5 4
356 358 31 7
356 359 23 4
356 360 26 10
357 358 45 4
357 359 13 10
357 360 1 1
358 359 8 4
358 360 17 2
359 360 22 7
362 363 25 4
364 365 3 5
364 366 43 8
364 367 46 7
365 366 13 1
365 367 50 3
366 367 12 2
368 369 40 1
368 370 50 4
368 371 41 3
368 372 28 1
369 370 22 2
369 371 1 7
369 372 16 6
370 371 1 1
370 372 37 5
371 372 30 8
373 374 34 1
375 376 28 3
377 378 12 5
377 379 22 3
378 379 39 7
380 381 46 10
380 382 14 7
381 382 19 8
385 386 34 1
385 387 6 4
385 388 36 8
386 387 34 9
386 388 20 7
387 388 49 9
389 390 7 9
389 391 43 7
390 391 43 3
392 393 34 1
392 394 5 4
393 394 11 8
395 396 22 6
395 397 13 1
395 398 34 7
395 399 24 4
395 400 5 6
396 397 21 2
396 398 24 10
396 399 31 3
396 400 19 1
397 398 13 10
397 399 27 9
397 400 44 3
398 399 32 7
398 400 16 7
399 400 7 5
401 402 1 7
401 403 46 9
401 404 9 1
402 403 43 6
402 404 7 10
403 404 31 5
405 406 12 4
407 408 15 10
407 409 39 3
407 410 47 9
408 409 8 3
408 410 47 8
409 410 12 3
412 413 4 7
412 414 2 10
413 414 22 7
415 416 24 8
415 417 16 3
415 418 24 3
416 417 39 7
416 418 13 7
417 418 8 3
419 420 2 3
419 421 33 8
419 422 30 1
419 423 49 5
419 424 40 8
420 421 13 2
420 422 19 3
420 423 40 7
420 424 12 3
421 422 15 4
421 423 22 8
421 424 37 9
422 423 46 9
422 424 46 6
423 424 25 5
426 427 28 1
428 429 37 10
430 431 23 7
432 433 45 5
432 434 14 10
432 435 18 10
432 436 35 1
433 434 35 2
433 435 48 5
433 436 50 2
434 435 18 3
434 436 47 8
435 436 5 1
437 438 22 10
437 439 26 1
438 439 38 2
440 753 28 9
440 464 37 2
440 456 38 8
440 452 39 1
440 451 32 9
440 450 33 2
440 441 6 7
440 442 39 6
440 443 29 5
440 444 19 7
440 445 48 8
440 446 42 2
440 447 32 4
440 448 17 8
440 449 3 3
441 467 34 4
441 442 49 1
441 443 1 1
441 444 37 3
441 445 32 6
441 446 23 8
441 447 36 2
441 448 5 7
441 449 4 7
442 478 13 5
442 476 21 9
442 472 10 10
442 470 9 1
442 469 28 4
442 443 39 5
442 444 10 9
442 445 32 2
442 446 15 7
442 447 41 6
442 448 42 2
442 449 10 6
443 494 13 5
443 488 38 7
443 486 18 1
443 483 15 10
443 444 21 10
443 445 23 9
443 446 28 10
443 447 34 7
443 448 34 4
443 449 48 9
444 682 44 9
444 592 11 6
444 590 19 3
444 752 17 10
444 502 5 5
444 496 7 2
444 495 27 9
444 445 34 1
444 446 4 4
444 447 37 2
444 448 8 2
444 449 37 1
445 510 25 6
445 509 34 3
445 506 24 3
445 446 3 4
445 447 9 3
445 448 7 5
445 449 25 3
446 542 2 7
446 518 8 1
446 513 14 4
446 447 23 5
446 448 50 5
446 449 35 5
447 522 25 10
447 520 48 8
447 448 46 2
447 449 33 1
448 541 8 4
448 532 18 9
448 530 11 4
448 525 17 3
448 449 1 2
449 684 25 2
449 539 22 1
449 534 6 4
453 454 40 9
453 455 21 6
453 456 11 6
454 455 1 5
454 456 32 7
455 456 4 8
457 458 32 4
457 459 32 3
457 460 10 1
457 461 10 4
457 462 11 5
457 463 15 10
457 464 36 5
458 459 33 2
458 460 29 2
458 461 21 9
458 462 39 10
458 463 48 5
458 464 49 8
459 460 38 6
459 461 23 10
459 462 33 1
459 463 45 4
459 464 2 1
460 461 47 10
460 462 10 6
460 463 7 6
460 464 10 2
461 462 50 6
461 463 4 8
461 464 23 4
462 463 27 10
462 464 44 3
463 464 34 9
465 466 34 2
465 467 40 6
466 467 34 8
468 469 9 1
471 472 28 6
471 473 24 8
471 474 17 2
472 473 16 4
472 474 50 2
473 474 21 9
475 476 20 6
477 478 22 2
477 479 20 8
477 480 6 3
477 481 27 2
477 482 2 9
478 479 19 4
478 480 23 8
478 481 23 9
478 482 49 1
479 480 9 10
479 481 49 4
479 482 48 9
480 481 16 7
480 482 3 6
481 482 20 1
483 484 49 7
485 486 7 2
485 487 26 4
486 487 33 7
488 489 9 5
488 490 32 2
488 491 15 3
488 492 43 6
488 493 14 5
489 490 1 6
489 491 2 9
489 492 26 10
489 493 47 4
490 491 11 8
490 492 18 6
490 493 30 4
491 492 31 2
491 493 49 5
492 493 19 7
496 497 14 9
498 499 1 10
498 500 1 4
498 501 3 3
498 502 13 4
498 503 32 8
499 500 2 8
499 501 14 6
499 502 4 6
499 503 50 1
500 501 22 1
500 502 50 7
500 503 38 5
501 502 8 2
501 503 25 1
502 503 12 2
504 505 19 3
504 506 26 10
504 507 27 9
504 508 43 10
505 506 26 2
505 507 10 8
505 508 27 5
506 507 2 10
506 508 31 4
507 508 30 6
510 511 35 2
510 512 33 6
511 512 31 4
513 514 39 8
513 515 6 6
513 516 5 4
513 517 6 8
514 515 30 1
514 516 47 5
514 517 43 7
515 516 48 6
515 517 16 2
516 517 4 10
519 520 31 2
521 522 17 8
521 523 13 7
521 524 28 9
522 523 1 2
522 524 13 10
523 524 21 8
526 527 17 1
526 528 38 4
526 529 27 7
526 530 5 5
527 528 4 7
527 529 37 6
527 530 22 2
528 529 50 10
528 530 37 5
529 530 14 8
531 532 21 2
531 533 7 3
532 533 30 5
535 536 46 5
535 537 6 5
535 538 22 1
535 539 50 1
536 537 10 7
536 538 13 1
536 539 25 1
537 538 39 9
537 539 43 4
538 539 41 4
540 590 23 5
540 751 9 3
540 547 14 7
540 541 3 4
540 542 1 9
540 543 22 1
540 544 46 5
541 754 45 3
541 551 18 4
541 548 29 4
541 542 43 9
541 543 16 5
541 544 19 4
542 686 26 8
542 562 42 4
542 558 7 2
542 554 5 8
542 543 14 7
542 544 50 3
543 685 41 10
543 580 20 3
543 579 38 1
543 576 16 7
543 568 38 10
543 566 8 7
543 564 22 1
543 544 37 9
544 589 37 2
544 584 36 6
544 581 28 7
545 546 49 10
545 547 32 2
546 547 12 10
549 550 35 1
549 551 18 6
549 552 10 1
549 553 41 5
550 551 24 5
550 552 3 8
550 553 5 6
551 552 11 6
551 553 21 1
552 553 16 3
554 555 38 10
554 556 43 6
554 557 17 7
555 556 5 8
555 557 45 8
556 557 36 8
558 559 37 8
560 561 10 10
560 562 37 6
561 562 36 6
563 564 22 8
565 566 3 8
565 567 34 8
566 567 17 2
568 569 18 6
568 570 23 5
569 570 10 9
571 572 1 1
571 573 49 10
571 574 10 4
571 575 14 9
571 576 6 1
571 577 43 6
571 578 10 7
572 573 19 3
572 574 34 6
572 575 47 7
572 576 48 7
572 577 24 2
572 578 40 8
573 574 49 3
573 575 16 9
573 576 36 9
573 577 41 10
573 578 28 7
574 575 10 1
574 576 40 7
574 577 30 6
574 578 38 10
575 576 6 3
575 577 28 3
575 578 47 4
576 577 24 8
576 578 20 10
577 578 49 8
582 583 28 9
582 584 5 3
582 585 25 7
582 586 41 5
583 584 38 7
583 585 16 10
583 586 34 5
584 585 19 8
584 586 6 4
585 586 25 9
587 588 30 1
587 589 2 7
588 589 45 5
590 751 2 5
590 607 12 8
590 604 2 7
590 600 49 8
590 591 1 2
590 592 9 10
590 593 40 6
590 594 34 8
590 595 3 10
590 596 38 1
590 597 34 3
590 598 50 8
591 611 18 6
591 608 24 5
591 592 13 5
591 593 14 3
591 594 32 10
591 595 49 2
591 596 8 5
591 597 15 1
591 598 7 9
592 753 45 6
592 615 25 6
592 614 38 6
592 593 49 2
592 594 6 4
592 595 46 1
592 596 49 10
592 597 41 5
592 598 42 2
593 625 26 1
593 620 14 3
593 594 36 2
593 595 12 9
593 596 26 2
593 597 28 9
593 598 36 3
594 684 28 8
594 646 27 10
594 644 20 10
594 639 31 5
594 636 2 7
594 632 18 4
594 628 38 1
594 626 41 1
594 595 47 2
594 596 11 2
594 597 44 9
594 598 29 8
595 658 10 1
595 654 28 1
595 652 30 7
595 649 46 5
595 596 6 8
595 597 20 9
595 598 29 9
596 669 29 4
596 667 48 7
596 662 47 8
596 660 45 3
596 597 42 5
596 598 39 7
597 682 21 3
597 673 6 5
597 598 20 4
598 678 40 8
598 676 41 10
599 600 6 7
599 601 13 3
599 602 12 6
600 601 6 10
600 602 18 6
601 602 50 5
603 604 26 10
603 605 40 3
604 605 8 8
606 607 30 8
608 609 19 1
610 611 14 9
610 612 28 7
610 613 49 1
611 612 25 2
611 613 27 10
612 613 33 4
615 616 50 5
615 617 17 9
615 618 31 4
615 619 50 9
616 617 44 4
616 618 19 4
616 619 25 9
617 618 5 10
617 619 39 3
618 619 8 1
620 621 10 6
620 622 42 1
620 623 3 8
620 624 7 5
621 622 18 7
621 623 3 2
621 624 27 10
622 623 44 10
622 624 15 5
623 624 24 7
627 628 6 5
627 629 48 7
628 629 39 3
630 631 20 4
630 632 43 7
630 633 16 9
631 632 29 2
631 633 37 1
632 633 7 1
634 635 22 6
634 636 33 2
635 636 17 1
637 638 13 7
637 639 35 7
637 640 8 7
638 639 13 6
638 640 38 8
639 640 14 4
641 642 21 1
641 643 11 3
641 644 15 2
641 645 46 6
642 643 14 6
642 644 27 10
642 645 39 2
643 644 24 9
643 645 17 3
644 645 36 7
647 648 5 5
647 649 26 5
648 649 26 4
650 651 12 6
650 652 47 7
651 652 1 3
653 654 26 8
653 655 20 2
654 655 17 4
656 657 46 2
656 658 1 9
657 658 23 5
659 660 47 9
661 662 49 8
661 663 38 7
661 664 30 4
661 665 6 2
662 663 14 4
662 664 7 3
662 665 27 4
663 664 32 10
663 665 5 6
664 665 24 2
666 667 17 5
668 669 27 2
668 670 21 9
669 670 33 6
671 672 37 5
671 673 14 10
672 673 38 10
674 675 16 7
674 676 10 3
674 677 45 10
675 676 16 4
675 677 20 1
676 677 22 6
678 679 9 5
680 698 32 6
680 692 19 8
680 689 15 2
680 687 29 6
680 681 36 6
680 682 31 4
680 683 20 2
680 684 26 4
680 685 6 5
680 686 46 3
681 701 41 4
681 682 1 2
681 683 8 6
681 684 37 7
681 685 16 4
681 686 19 7
682 714 31 7
682 711 46 1
682 709 39 1
682 705 11 10
682 702 43 1
682 683 37 3
682 684 1 3
682 685 37 4
682 686 7 7
683 751 10 4
683 724 8 2
683 718 3 2
683 717 4 2
683 684 16 5
683 685 32 9
683 686 3 5
684 730 30 2
684 727 18 4
684 685 29 9
684 686 7 5
685 752 9 6
685 734 3 4
685 686 11 2
686 749 11 5
686 745 30 3
686 744 11 6
686 741 9 9
686 737 31 10
687 688 29 5
689 690 21 4
689 691 43 2
690 691 3 2
692 693 21 5
694 695 40 3
694 696 21 6
694 697 46 10
694 698 11 10
695 696 47 10
695 697 18 2
695 698 44 1
696 697 18 9
696 698 34 3
697 698 9 8
699 700 42 2
699 701 34 3
700 701 19 1
702 703 40 3
702 704 42 4
703 704 29 1
705 706 23 8
707 708 31 10
707 709 29 1
708 709 39 6
710 711 5 9
712 713 3 2
712 714 38 10
712 715 32 10
712 716 49 10
713 714 10 4
713 715 45 6
713 716 22 4
714 715 17 2
714 716 15 9
715 716 34 6
718 719 45 9
718 720 4 8
719 720 49 6
721 722 46 10
721 723 48 5
721 724 5 7
721 725 24 2
722 723 31 3
722 724 48 10
722 725 17 7
723 724 10 2
723 725 33 6
724 725 39 8
726 727 43 3
726 728 23 6
727 728 7 3
729 730 5 10
729 731 7 1
730 731 19 7
732 733 33 7
732 734 18 10
733 734 14 4
735 736 46 2
735 737 35 6
735 738 9 6
735 739 24 7
736 737 6 3
736 738 48 4
736 739 4 6
737 738 3 1
737 739 39 7
738 739 13 6
740 741 16 9
740 742 28 8
740 743 36 9
741 742 36 5
741 743 15 8
742 743 18 8
746 747 35 2
746 748 30 9
746 749 43 3
747 748 24 1
747 749 17 6
748 749 17 7
750 769 31 3
750 767 17 9
750 765 34 5
750 757 38 2
750 755 22 10
750 751 9 8
750 752 27 3
750 753 9 8
750 754 10 5
751 775 44 7
751 771 1 5
751 752 36 8
751 753 36 8
751 754 31 8
752 782 32 5
752 780 24 9
752 778 12 1
752 753 33 10
752 754 11 4
753 790 27 7
753 788 2 9
753 754 4 4
754 796 22 5
754 795 49 7
754 791 4 8
755 756 21 3
757 758 30 7
757 759 13 1
757 760 29 6
757 761 34 9
757 762 32 6
758 759 38 1
758 760 28 10
758 761 38 6
758 762 44 8
759 760 39 6
759 761 45 10
759 762 36 10
760 761 3 1
760 762 25 2
761 762 37 8
763 764 27 9
763 765 40 10
763 766 10 9
764 765 42 2
764 766 50 7
765 766 9 1
768 769 16 4
770 771 32 9
772 773 24 5
772 774 5 8
772 775 16 6
773 774 41 7
773 775 31 6
774 775 17 1
776 777 27 10
776 778 9 8
777 778 25 8
779 780 2 5
779 781 15 1
780 781 37 6
782 783 18 10
782 784 7 4
783 784 33 9
785 786 20 3
785 787 37 10
785 788 5 4
786 787 26 10
786 788 40 4
787 788 27 2
789 790 45 1
792 793 4 6
792 794 24 3
792 795 1 10
793 794 1 7
793 795 7 8
794 795 6 7
796 797 15 8
796 798 22 3
796 799 41 6
797 798 38 6
797 799 37 3
798 799 29 1
348 203 26 4
682 112 10 5
446 682 42 6
205 1 17 5
115 8 29 7
294 445 15 5
681 111 18 3
685 7 43 6
3 441 45 6
2 595 45 7
447 417 34 7
203 40 7 5
207 581 42 10
682 59 50 5
115 637 44 1
445 335 21 6
685 756 2 5
441 456 34 2
6 300 42 6
541 737 36 7
111 81 16 8
208 380 40 2
346 213 14 2
8 385 13 6
595 674 34 4
540 43 48 1
10 767 49 7
542 309 45 10
111 176 9 7
686 18 16 3
208 581 11 2
598 670 4 1
4 270 9 10
442 479 26 7
343 456 48 2
117 713 20 3
206 235 40 9
751 338 18 8
115 475 32 8
205 59 5 7
440 554 21 1
349 576 47 5
446 552 44 7
202 79 20 3
204 334 17 1
2 288 35 5
542 737 22 6
203 300 17 6
683 135 20 6
686 380 10 4
203 62 5 10
348 520 32 8
205 23 13 2
449 485 3 1
593 759 6 7
110 613 29 2
292 589 16 3
291 708 49 9
112 631 28 4
445 100 18 1
591 678 49 8
449 165 12 5
5 740 42 1
293 89 30 2
200 158 1 3
343 130 29 5
206 599 14 8
595 280 25 4
9 604 35 4
341 582 25 2
118 140 42 1
10 481 1 5
5 507 10 8
202 133 1 9
543 169 45 3
448 711 39 5
544 369 41 2
115 745 27 2
341 673 1 4
1 354 19 4
542 65 10 9
683 355 3 2
207 311 50 6
441 29 34 6
543 125 41 5
294 518 25 1
680 185 15 8
113 698 19 2
110 245 12 8
341 600 6 10
684 635 14 4
117 65 28 10
113 626 5 8
0 510 5 2
5 626 32 10
681 705 17 4
441 96 7 8
10 238 27 6
591 550 23 2
597 324 27 10
590 651 31 10
591 610 33 6
685 68 15 5
293 235 23 1
118 86 48 1
542 775 36 4
543 481 34 7
293 44 5 2
442 325 29 7
593 624 27 3
540 791 3 5
680 531 19 7
682 171 18 10
442 271 15 7
750 263 23 7
204 787 39 2
115 389 8 9
7 555 12 4
290 571 39 5
110 21 33 7
343 177 28 8
343 412 19 8
597 790 14 1
10 651 33 1
346 217 10 4
4 261 48 2
446 353 35 2
591 194 35 9
443 515 46 8
3 379 45 5
9 507 23 8
348 627 1 2
294 435 45 1
449 617 23 1
685 664 6 9
340 773 44 10
344 336 20 6
112 383 10 1
117 101 9 6
208 91 3 1
347 470 18 4
590 262 3 7
290 663 45 6
440 391 40 1
449 184 23 1
342 697 40 3
342 43 1 10
5 196 36 8
750 547 16 4
114 315 20 8
0 255 9 4
596 412 37 3
754 72 24 10
114 187 13 7
598 726 22 10
444 371 50 3
343 314 30 1
290 335 8 3
349 302 17 8
203 63 47 8
201 569 21 2
4 458 36 9
115 24 33 8
110 469 18 5
4 538 3 7
447 424 26 5
204 258 42 8
346 281 35 7
347 637 29 9
114 534 36 9
10 267 24 7
448 79 36 2
345 358 44 4
596 613 33 9
346 38 24 2
201 102 16 6
114 230 44 8
8 312 1 3
684 769 16 4
444 576 26 5
113 61 23 9
204 230 16 4
685 35 46 7
542 301 6 6
449 256 17 8
597 757 28 10
686 96 21 3
342 573 15 9
590 336 3 2
595 135 29 7
686 712 4 8
685 198 11 7
342 601 15 1
347 216 44 3
751 131 32 1
754 514 14 5
4 125 24 10
542 501 28 2
682 244 16 8
684 697 28 7
750 605 42 8
346 742 35 3
291 183 15 10
206 125 49 2
593 375 35 1
203 768 33 2
118 55 27 1
290 639 46 10
598 487 28 4
206 667 12 4
343 566 28 2
118 516 21 3
345 29 5 10
200 549 23 1
592 193 35 2
201 139 22 2
440 333 22 1
753 371 38 1
445 319 28 4
340 458 33 2
346 214 2 5
544 720 34 2
752 600 7 1
750 797 23 8
294 60 37 6
8 156 34 3
116 400 3 4
448 241 12 9
9 142 11 7
116 243 6 7
595 229 15 6
686 792 50 9
347 163 11 3
342 576 47 9
541 318 1 3
201 27 29 3
208 45 40 6
685 365 13 8
208 48 32 1
6 478 41 7
348 515 41 8
448 189 27 6
686 478 1 2
348 386 14 1
448 693 8 5
0 745 22 7
291 646 3 5
447 588 12 10
114 188 44 4
205 612 6 2
7 438 41 10
114 419 20 7
684 108 49 7
6 729 28 9
591 299 5 4
445 61 20 2
596 397 36 1
201 662 24 10
110 431 44 2
590 411 44 8
291 357 7 5
445 501 47 5
117 227 12 5
203 80 18 10
114 636 9 3
113 629 23 5
114 261 24 10
118 507 17 8
349 272 4 10
117 297 50 3
441 210 6 8
344 513 40 3
208 615 2 10
751 18 35 4
752 57 10 1
5 67 31 10
340 632 38 5
593 34 25 6
117 81 29 6
344 749 47 4
681 433 40 7
206 375 42 4
681 659 5 8
684 13 31 10
116 520 34 3
596 635 10 4
202 406 37 3
4 108 47 3
682 652 50 10
203 513 3 5
346 787 46 8
6 19 6 1
292 172 29 8
204 336 46 6
593 95 46 8
110 157 36 8
116 310 29 5
117 29 27 6
7 315 22 3
445 49 15 7
205 767 24 2
683 565 30 1
750 637 19 8
596 736 18 2
200 401 16 7
684 786 8 4
8 334 43 1
446 169 7 1
754 663 13 7
540 787 39 1
113 253 42 9
590 101 43 10
112 464 11 9
292 580 24 6
591 675 31 3
207 314 23 2
292 735 23 9
200 582 18 4
7 79 13 2
440 49 7 7
4 487 35 8
591 745 46 10
290 324 30 2
200 100 10 6
290 734 7 1
449 799 10 6
115 552 47 8
682 135 41 7
112 39 19 3
449 574 18 10
443 248 31 3
541 675 16 3
751 166 50 6
446 17 38 5
294 795 31 4
445 473 26 4
446 11 26 7
449 79 47 8
753 659 23 2
0 512 41 7
112 491 35 6
542 363 6 2
6 711 48 7
542 734 38 7
544 786 50 1
348 789 13 2
685 138 26 7
348 62 40 8
750 505 45 7
750 353 36 10
204 701 4 5
685 144 16 6
750 669 4 3
202 461 49 8
751 176 40 2
540 58 27 9
117 508 11 10
116 673 3 3
203 554 31 5
544 780 16 5
683 746 21 10
544 456 46 7
293 301 7 8
752 249 22 2
590 83 47 2
208 33 6 9
597 388 43 4
595 534 45 7
752 285 31 10
751 423 38 1
349 701 38 7
294 535 39 5
540 47 10 6
207 508 25 5
8 418 36 10
290 23 28 4
341 479 48 10
345 234 31 10
291 238 48 7
113 784 39 7
201 450 44 4
540 77 23 1
294 12 4 4
116 305 46 9
203 639 18 7
543 557 49 6
596 175 33 9
0 524 6 6
681 56 28 10
291 617 45 8
344 95 41 10
203 150 39 8
294 275 33 9
592 422 39 3
117 432 21 10
597 140 41 4
591 451 2 3
684 524 9 3
752 567 42 8
592 526 1 9
344 27 8 2
292 572 5 6
113 238 34 2
751 619 41 5
544 500 38 4
201 492 43 3
593 37 7 4
202 484 38 2
292 144 47 8
754 781 18 1
7 694 20 1
681 742 10 1
349 724 35 3
117 219 33 7
592 177 13 9
754 639 19 2
443 648 20 8
680 583 25 10
202 56 49 3
290 263 41 7
0 417 45 8
446 256 30 8
754 278 50 9
441 518 27 5
294 784 16 10
110 526 20 1
591 287 14 2
290 92 48 7
751 673 48 4
447 559 12 8
684 431 40 8
681 462 24 5
292 711 44 10
540 63 41 8
595 604 3 5
540 298 23 4
544 782 2 6
751 20 12 6
750 718 10 4
208 155 2 1
441 139 18 3
441 746 41 3
447 365 1 5
681 644 8 9
344 775 33 9
598 559 24 8
684 413 37 1
113 377 45 1
0 586 37 6
595 714 16 8
344 657 35 4
293 562 18 10
752 776 35 1
542 520 37 1
8 389 1 3
541 771 32 5
8 403 31 6
751 138 15 9
113 44 5 8
541 661 26 7
750 368 47 5
541 37 50 4
344 708 26 4
447 143 43 9
441 181 3 1
542 746 6 2
443 559 14 10
591 27 31 10
207 612 2 4
441 38 17 10
598 251 44 4
683 631 27 8
443 311 34 8
443 397 49 3
340 625 45 8
349 22 8 1
447 630 25 1
683 732 31 3
541 439 8 9
683 222 23 1
1 463 45 1
598 605 15 1
294 403 42 2
593 299 17 8
341 62 46 10
592 90 9 5
112 749 32 3
340 524 10 10
443 387 25 6
598 150 37 7
341 178 31 2
207 634 10 6
1 73 19 8
592 522 3 9
540 20 18 7
596 452 15 5
544 639 20 1
202 305 29 8
341 91 33 9
447 358 6 7
752 454 44 1
1 511 42 2
544 722 45 3
207 744 49 1
541 383 28 1
291 728 24 2
540 40 1 10
7 563 6 1
112 689 47 3
293 715 47 3
543 242 39 8
541 271 46 6
597 161 27 3
293 459 11 5
340 579 5 4
597 192 25 5
544 573 24 6
8 774 28 7
341 130 1 1
754 666 39 3
340 319 10 4
753 402 41 7
592 458 17 3
1 762 50 4
680 228 16 4
544 660 21 5
752 644 8 7
681 688 20 9
681 569 27 10
593 636 10 9
680 522 6 5
541 669 8 7
292 714 23 6
293 421 45 10
592 133 39 5
753 408 7 3
680 339 32 5
1 281 8 9
340 702 5 7
754 659 2 1
681 410 3 5
751 71 28 6
207 624 33 7
291 372 4 2
291 799 14 8
207 127 25 4
753 86 17 3
752 61 14 7
593 382 35 7
543 422 9 1
680 674 17 3
597 209 39 4
681 253 27 8
753 746 5 8
292 438 28 6
292 466 41 9
680 298 5 1
292 512 50 3
543 254 41 5
753 530 39 1
752 581 25 9
681 637 44 3
597 246 12 8
753 373 46 8
247 439 1 2
417 121 34 10
535 40 4 2
432 760 33 2
581 675 34 3
59 525 28 2
657 637 7 4
532 798 9 8
335 91 14 4
332 756 37 4
334 706 50 3
456 124 32 1
477 300 26 4
469 549 20 5
737 263 9 2
538 81 34 8
614 93 10 4
380 487 1 10
298 213 8 10
504 611 24 1
385 29 33 9
192 674 42 9
323 429 41 5
43 786 36 1
420 767 10 1
372 378 28 2
309 165 41 9
488 176 17 2
122 776 19 3
18 331 23 10
223 581 22 6
361 699 40 9
670 51 19 6
472 270 14 3
383 281 40 1
479 468 11 9
80 456 24 1
769 198 49 9
713 783 16 10
661 235 4 8
154 504 13 10
338 471 14 4
467 475 3 1
322 352 11 2
59 411 40 5
779 554 4 10
316 190 9 7
576 159 50 2
355 552 15 9
732 617 15 1
79 64 35 4
380 334 27 7
488 649 41 3
288 738 7 7
422 737 21 6
45 476 30 4
300 640 44 10
758 135 3 6
499 314 10 8
380 168 21 5
246 62 19 3
625 785 33 8
520 516 31 10
396 23 8 4
55 383 5 7
485 717 17 3
553 759 46 5
143 624 50 7
613 146 35 4
370 589 4 2
509 497 47 9
708 377 42 5
669 631 50 5
641 244 23 7
100 303 39 3
477 678 26 3
138 51 39 6
165 92 22 1
320 740 6 10
679 313 3 4
89 220 13 4
254 158 33 1
241 539 34 8
130 771 18 4
773 599 46 8
41 354 34 9
280 44 11 1
463 604 4 8
524 21 31 1
582 748 26 7
47 140 5 1
124 253 12 3
481 134 26 5
335 507 9 3
733 131 47 3
133 554 43 7
502 169 31 8
582 288 5 5
711 367 42 10
193 369 48 5
702 66 2 9
745 790 15 5
125 673 2 9
186 550 7 5
354 788 12 3
182 65 28 4
223 394 23 2
355 489 24 6
423 311 48 4
415 612 23 4
29 417 17 10
611 125 41 2
418 389 35 2
518 59 48 8
299 185 19 5
177 97 44 10
698 336 45 8
407 245 21 8
400 76 27 8
600 20 40 2
177 635 18 8
313 356 42 8
65 62 28 2
708 626 11 10
333 273 12 5
510 49 14 7
119 626 30 8
42 52 36 2
705 363 22 5
634 96 9 6
131 323 30 2
238 495 44 4
450 550 40 1
740 518 33 4
324 756 32 5
510 651 22 5
105 491 43 3
610 266 12 8
370 68 18 7
338 243 9 10
235 633 2 5
768 86 4 8
419 500 14 1
775 45 36 7
339 481 50 6
698 354 15 7
44 420 45 3
516 325 27 6
766 78 38 1
624 628 5 9
705 791 15 1
169 230 11 2
531 679 35 10
581 171 9 5
64 690 27 8
271 533 20 10
421 263 34 10
73 474 7 1
787 581 28 6
582 389 39 8
426 28 2 8
555 759 10 4
327 571 38 10
476 123 43 6
21 216 49 8
19 177 49 2
325 396 46 6
412 786 48 6
395 790 4 8
748 796 25 8
651 25 41 2
399 217 5 8
586 579 5 6
261 135 2 7
127 353 15 4
303 430 39 8
194 352 45 3
161 515 15 3
658 23 13 2
379 231 9 7
310 507 5 3
699 360 13 3
627 489 36 1
375 435 43 9
739 747 50 1
617 163 45 3
555 664 11 7
210 770 31 7
773 46 8 8
612 336 3 10
120 664 34 7
383 534 8 5
462 101 21 9
36 464 35 4
91 661 33 5
335 470 23 2
730 476 44 9
262 470 23 4
744 663 29 8
265 301 39 6
391 774 8 2
175 184 49 8
522 266 36 10
697 522 8 2
304 43 47 1
143 51 31 3
196 549 25 10
768 547 4 10
251 459 3 10
315 735 50 1
659 255 50 1
770 282 50 5
412 749 28 10
98 72 35 9
197 600 25 4
187 506 16 5
711 726 4 5
689 428 30 10
371 423 10 9
661 314 33 9
220 76 12 6
335 633 34 5
538 302 21 10
229 797 37 6
63 407 4 1
323 569 14 9
586 537 36 1
458 168 16 8
300 24 4 10
483 50 50 9
469 127 36 1
426 538 32 6
556 720 47 1
424 32 32 9
744 258 37 7
615 412 8 4
281 778 21 4
692 637 48 8
137 552 48 8
534 327 10 2
627 267 2 8
757 55 45 1
79 173 49 3
602 358 14 6
413 550 4 1
613 109 47 1
439 38 20 1
509 799 33 5
102 706 24 10
337 230 13 1
53 192 22 4
312 75 40 6
50 769 27 9
64 140 27 1
576 503 6 4
779 61 28 9
630 679 16 7
230 414 35 5
678 35 26 3
217 223 16 2
301 628 22 3
475 256 23 7
261 20 10 9
757 247 28 3
588 96 4 1
616 268 28 3
573 418 32 2
555 336 23 7
403 692 5 1
135 18 38 2
52 712 12 5
499 436 35 6
198 468 6 7
486 601 46 10
88 749 47 9
216 629 41 7
708 131 10 3
235 640 47 6
514 355 47 4
176 125 42 7
506 488 34 3
501 375 43 2
564 244 47 7
576 54 41 10
697 402 23 4
187 605 30 2
227 63 39 3
742 281 20 10
94 183 6 7
730 509 19 8
125 744 38 8
354 375 16 5
239 235 11 2
768 135 45 5
762 55 12 8
28 784 36 3
639 735 18 9
309 487 1 10
309 588 1 2
667 516 24 7
237 566 20 6
419 613 29 6
516 606 42 6
706 29 30 10
99 737 32 8
549 146 3 6
606 193 19 3
339 521 14 10
139 284 47 6
283 333 49 4
721 778 31 7
371 770 21 10
509 319 46 5
275 475 2 9
458 280 34 6
695 214 14 10
383 73 15 8
720 82 41 5
600 18 29 5
320 507 5 4
795 353 12 7
797 274 50 6
720 60 26 7
729 284 45 10
156 177 12 7
330 400 4 1
773 109 23 5
241 252 42 2
166 142 12 8
103 518 9 8
243 98 28 5
44 229 46 10
613 619 36 3
792 136 8 9
243 163 9 9
325 628 25 5
576 257 30 10
83 318 31 3
669 83 5 7
27 796 38 9
671 45 49 3
130 262 19 9
365 790 37 8
637 48 25 6
66 120 32 9
478 529 44 10
436 515 3 4
581 789 19 2
189 179 8 8
147 478 39 5
646 323 45 2
386 263 30 4
174 693 50 5
718 575 29 8
745 24 16 10
281 646 43 7
193 658 23 4
588 635 38 1
647 188 10 10
602 712 7 5
612 651 5 3
714 438 49 10
401 338 44 2
419 178 29 10
741 108 11 4
103 621 23 3
729 505 50 1
709 299 40 6
103 530 3 3
61 197 22 5
477 397 13 2
791 577 19 2
662 298 17 10
259 431 18 9
469 159 32 8
411 192 50 7
785 357 21 10
600 427 36 6
501 312 28 9
531 227 25 1
620 755 43 1
80 669 49 7
516 636 43 2
416 716 1 1
629 500 16 9
316 261 48 7
463 20 46 9
507 582 25 2
251 272 4 3
321 785 16 6
297 31 2 6
691 210 14 8
642 160 45 4
513 131 24 9
609 615 12 4
220 701 40 4
18 546 47 5
392 57 20 10
327 633 6 2
67 459 34 6
694 632 6 5
553 710 6 2
34 101 36 4
52 81 41 10
401 308 50 1
749 576 31 9
239 433 46 4
664 483 13 2
375 64 29 10
668 659 21 9
470 437 32 8
13 210 8 7
639 520 11 7
435 655 19 6
635 88 40 7
390 406 11 3
220 270 19 2
108 714 29 5
311 652 43 2
188 38 43 1
513 247 27 6
520 787 49 6
716 632 25 2
19 579 24 9
779 172 42 5
502 60 50 10
336 798 2 3
247 95 2 6
547 356 50 9
157 310 38 9
100 310 17 9
641 119 39 3
29 332 17 5
740 315 21 4
760 80 16 10
49 657 36 5
289 767 23 4
383 412 41 4
565 47 2 5
635 637 28 1
416 404 37 4
736 693 39 5
582 401 2 3
779 366 18 1
786 641 36 7
477 334 22 2
378 658 36 8
169 704 1 7
259 663 19 2
549 513 10 7
787 260 22 6
666 253 20 4
473 400 15 6
101 378 21 10
732 464 20 9
774 121 35 6
580 248 25 8
467 675 25 5
247 504 10 4
314 326 8 7
764 735 19 3
62 621 44 10
582 628 27 5
420 79 28 4
612 470 10 8
49 670 43 8
21 487 21 3
319 21 17 1
745 426 39 7
20 324 44 7
172 372 47 10
100 363 36 5
40 734 45 2
779 350 46 6
799 332 20 5
508 552 45 5
128 787 42 3
135 452 49 3
135 39 43 9
478 398 17 6
589 248 14 4
614 297 34 8
675 466 15 10
403 166 41 2
186 519 4 10
17 632 14 3
457 795 23 10
523 353 23 10
473 278 21 8
379 11 47 6
67 630 40 2
79 780 41 2
669 659 35 7
581 36 7 1
512 650 43 9
633 491 45 8
224 534 8 6
363 130 5 2
586 711 31 6
289 769 17 2
734 584 2 8
334 786 27 4
724 219 15 6
789 121 21 5
621 138 25 5
250 388 9 10
62 171 8 4
605 505 22 9
22 731 10 6
353 124 45 2
503 701 4 6
20 617 1 4
144 106 7 10
79 669 44 6
239 410 1 7
461 430 27 6
418 176 22 2
148 538 39 3
58 567 13 3
646 508 16 10
381 783 32 2
673 82 17 7
22 554 33 1
306 320 2 6
780 242 19 5
171 746 4 2
93 622 40 9
456 692 33 2
197 301 34 9
48 318 13 7
249 242 17 1
311 83 46 5
198 59 39 3
33 660 6 2
356 388 17 3
484 40 28 10
534 355 11 5
432 285 25 6
224 267 11 7
423 395 23 3
731 701 30 1
32 588 12 5
535 46 9 8
186 47 1 9
243 706 47 8
508 333 48 3
660 418 31 2
557 402 41 10
23 235 26 5
412 479 9 6
580 244 43 7
234 453 9 6
314 238 38 3
545 635 48 10
784 653 18 9
783 450 24 3
86 264 29 1
77 239 16 7
572 12 20 1
171 144 39 3
305 125 12 5
167 687 39 6
557 381 21 3
370 175 23 7
242 31 15 4
524 467 49 8
633 56 28 9
395 558 40 8
617 107 42 9
211 95 7 2
237 275 41 4
150 79 24 7
787 275 12 9
759 477 18 4
422 256 6 3
428 432 50 8
529 106 48 4
140 458 12 10
125 451 14 3
758 638 27 7
524 631 27 8
574 567 23 6
527 146 16 7
526 767 48 10
260 27 29 6
213 77 22 2
572 703 19 7
356 238 33 2
464 13 37 6
619 421 20 2
136 500 31 7
798 582 5 9
492 639 1 3
185 37 49 10
763 377 23 10
484 267 7 10
173 144 49 9
749 86 41 3
781 506 40 3
228 694 47 8
396 581 50 5
742 478 9 7
668 724 47 7
660 577 13 9
219 669 17 7
273 177 14 9
546 92 19 3
639 168 1 1
339 648 17 9
159 691 9 5
583 722 38 2
756 56 13 6
166 589 7 3
263 482 11 10
225 417 25 6
572 374 29 10
256 308 19 6
574 278 6 4
51 330 14 2
518 759 5 9
428 784 36 4
30 416 12 1
526 43 38 5
129 287 45 1
572 55 38 3
92 688 3 4
74 673 28 7
763 511 28 10
559 549 41 8
234 431 14 6
400 325 26 7
462 676 43 8
538 711 36 2
309 173 30 6
63 81 17 8
423 604 42 8
689 692 42 1
298 400 16 4
391 782 47 7
329 527 46 10
20 464 17 7
793 718 30 3
53 772 30 2
155 691 2 9
367 139 29 3
470 757 11 8
746 382 8 9
749 365 2 3
436 377 35 4
644 25 11 10
790 161 26 5
559 358 3 3
508 413 38 9
46 628 16 4
377 334 48 9
393 586 37 4
19 97 14 10
714 179 33 3
104 657 47 8
95 56 29 2
562 545 46 2
332 776 30 7
181 132 33 7
520 277 44 10
426 389 32 1
63 782 20 7
771 481 14 1
499 403 3 9
271 304 10 4
138 693 33 6
209 44 6 8
182 429 20 7
661 558 32 9
505 368 49 4
337 249 32 4
37 132 12 6
32 708 41 10
125 619 3 10
143 325 12 1
98 181 29 5
699 588 9 10
746 503 19 7
579 559 37 8
491 61 27 1
27 428 38 7
667 612 45 2
713 529 11 2
38 599 48 7
316 251 21 4
623 523 33 8
631 668 43 10
173 311 15 8
305 701 42 6
397 225 34 2
135 625 10 9
606 657 9 5
22 387 27 8
124 630 29 9
329 335 42 6
732 519 44 4
473 439 46 8
36 459 32 3
222 626 43 4
24 463 33 10
772 438 27 3
605 477 41 3
192 403 50 5
354 337 18 7
299 666 41 7
273 62 9 5
584 166 24 10
90 309 2 8
749 12 5 10
296 524 17 9
779 209 31 2
387 470 7 7
677 150 43 4
626 253 49 8
178 710 18 4
212 634 12 8
743 557 17 3
73 378 13 4
695 522 3 4
13 634 46 8
20 65 43 9
99 452 7 3
354 175 47 3
639 423 26 2
225 305 2 4
785 792 49 5
91 786 25 4
35 358 46 3
262 735 37 1
454 146 12 4
363 511 29 10
701 61 16 2
722 263 50 1
73 744 3 4
54 124 24 8
383 423 44 8
320 728 9 8
138 67 49 7
40 629 5 6
757 563 36 3
286 476 40 1
689 254 1 8
381 715 7 7
278 329 11 4
242 257 44 3
424 271 47 3
242 281 24 10
161 673 46 2
74 459 29 6
215 467 28 2
579 64 49 1
664 192 36 10
725 424 1 2
573 12 24 1
175 774 23 7
134 41 33 2
130 421 30 3
37 666 48 4
787 45 1 2
319 99 14 5
331 402 3 3
20 303 2 6
458 404 21 1
161 762 38 8
794 418 3 5
228 271 34 2
139 660 5 6
391 727 33 9
644 651 47 10
747 318 26 5
632 393 41 10
688 715 16 1
746 569 47 10
487 315 50 7
636 512 43 5
652 522 10 7
464 26 36 3
669 458 50 2
168 73 19 10
421 325 16 8
777 133 12 10
318 711 2 5
408 132 9 3
633 339 1 4
257 531 4 2
281 512 15 3
367 702 5 8
509 792 39 3
659 75 33 3
170 410 24 6
485 145 16 2
71 628 35 8
77 624 12 1
161 435 43 2
372 250 10 5
771 799 40 10

0 467 105
1 525 14
2 273 49
3 371 59
4 605 96
5 17 41
6 299 66
7 100 263
8 725 50
9 539 94
10 507 39
11 351 40
12 654 35
13 234 28
14 79 147
15 631 117
16 42 40
17 149 23
18 168 59
19 52 41
20 316 106
21 90 11
22 638 62
23 415 58
24 192 157
25 72 78
26 529 141
27 395 63
28 361 34
29 755 42
30 474 46
31 244 44
32 308 25
33 328 19
34 18 131
35 702 89
36 623 34
37 743 48
38 309 106
39 56 117
40 576 281
41 659 47
42 253 85
43 429 61
44 45 70
45 95 225
46 645 64
47 548 16
48 81 90
49 562 49
50 176 40
51 365 60
52 199 3
53 386 65
54 84 53
55 188 45
56 224 45
57 128 21
58 402 113
59 78 51
60 172 96
61 105 39
62 271 87
63 69 24
64 586 127
65 688 42
66 119 53
67 153 24
68 577 154
69 778 50
70 174 49
71 409 42
72 726 63
73 226 37
74 350 76
75 355 91
76 509 94
77 263 204
78 214 87
79 691 45
80 658 34
81 23 55
82 534 38
83 416 48
84 157 54
85 423 266
86 662 116
87 483 71
88 677 80
89 104 26
90 222 44
91 575 109
92 288 45
93 358 129
94 620 81
95 461 106
96 427 14
97 410 82
98 721 54
99 700 29
100 160 31
101 580 72
102 704 29
103 70 31
104 460 82
105 532 23
106 763 47
107 484 67
108 433 107
109 766 69
110 558 41
111 675 79
112 653 36
113 454 82
114 516 164
115 747 85
116 439 56
117 94 141
118 389 81
119 144 83
120 436 97
121 714 143
122 660 82
123 587 12
124 405 13
125 272 35
126 30 28
127 83 114
128 311 137
129 470 89
130 368 106
131 617 192
132 496 11
133 624 110
134 135 83
135 761 85
136 80 87
137 455 6
138 779 42
139 163 126
140 109 54
141 180 36
142 466 50
143 388 115
144 502 87
145 256 98
146 787 206
147 462 106
148 527 87
149 732 73
150 611 38
151 186 66
152 585 19
153 217 72
154 630 121
155 579 52
156 431 77
157 419 151
158 318 122
159 606 55
160 796 54
161 568 44
162 179 42
163 82 44
164 798 63
165 503 54
166 239 136
167 673 109
168 589 41
169 379 56
170 212 52
171 476 127
172 58 91
173 87 4
174 760 121
175 237 97
176 324 131
177 486 45
178 221 20
179 718 45
180 259 46
181 298 52
182 471 42
183 327 88
184 650 60
185 143 35
186 54 63
187 387 80
188 310 104
189 632 64
190 57 51
191 65 36
192 767 53
193 22 69
194 413 82
195 795 49
196 286 59
197 296 34
198 289 76
199 267 63
200 93 179
201 651 73
202 759 173
203 39 19
204 701 141
205 59 101
206 522 62
207 181 98
208 399 44
209 418 119
210 248 132
211 218 50
212 274 21
213 396 68
214 564 36
215 233 2
216 397 101
217 556 57
218 784 82
219 77 49
220 63 115
221 131 112
222 744 54
223 260 62
224 31 54
225 699 86
226 578 71
227 138 178
228 336 67
229 608 14
230 73 40
231 738 54
232 322 46
233 549 115
234 629 67
235 391 153
236 99 85
237 459 85
238 67 42
239 508 220
240 475 33
241 707 34
242 566 32
243 50 91
244 772 47
245 533 28
246 314 169
247 665 39
248 329 47
249 91 34
250 434 69
251 519 26
252 713 47
253 211 44
254 614 30
255 505 85
256 728 14
257 187 60
258 276 36
259 537 84
260 53 28
261 531 33
262 664 105
263 354 152
264 769 35
265 550 62
266 280 35
267 464 114
268 643 15
269 709 73
270 285 117
271 789 31
272 319 102
273 741 38
274 663 99
275 485 23
276 323 119
277 407 87
278 641 112
279 75 94
280 68 49
281 794 10
282 362 7
283 265 66
284 178 32
285 161 90
286 330 22
287 213 55
288 536 51
289 404 64
290 166 216
291 333 37
292 468 18
293 609 13
294 243 52
295 477 84
296 610 71
297 618 40
298 132 105
299 495 42
300 241 103
301 780 88
302 479 144
303 547 85
304 141 115
305 490 61
306 162 112
307 535 59
308 600 53
309 424 180
310 515 86
311 251 112
312 232 44
313 432 115
314 270 18
315 356 72
316 383 77
317 425 6
318 603 20
319 451 17
320 240 66
321 62 112
322 510 75
323 195 22
324 378 40
325 209 87
326 458 312
327 506 99
328 364 58
329 194 26
330 504 60
331 563 30
332 142 65
333 106 35
334 48 59
335 300 112
336 494 7
337 692 42
338 215 28
339 102 35
340 220 46
341 61 86
342 332 42
343 301 66
344 266 55
345 501 124
346 247 79
347 716 72
348 730 67
349 41 84
350 567 38
351 758 53
352 523 22
353 27 48
354 648 22
355 621 90
356 719 33
357 453 54
358 666 41
359 422 66
