27 32 8

260

0 1 40 5
1 2 50 3
1 26 60 1
2 3 20 3
2 26 70 1
3 4 20 1
3 5 60 2
3 6 10 1
3 19 40 1
4 5 10 1
5 6 10 2
5 7 40 1
5 8 60 2
5 14 40 1
5 24 60 3
5 25 50 2
6 8 10 1
6 16 10 2
7 15 60 1
8 9 50 2
8 10 30 2
8 17 40 1
9 12 20 1
10 11 15 1
10 13 11 1
17 18 60 1
17 23 60 1
19 20 15 2
19 21 10 2
20 21 5 1
21 22 30 2
24 25 40 1

0 14 50
1 15 50
2 8 11
3 6 40
4 0 30
5 5 20
6 18 50
7 4 50
