300 1176 135

890

0 123 3 5
0 22 4 3
0 55 46 7
0 10 8 7
0 5 38 5
0 4 6 6
0 1 33 2
1 211 44 3
1 173 4 5
1 56 15 3
1 21 28 9
1 124 13 6
1 172 30 7
1 218 20 10
1 16 11 1
1 15 32 5
1 12 25 1
2 3 7 6
2 4 36 10
3 4 9 10
6 7 14 8
6 8 30 2
6 9 19 9
6 10 23 10
7 8 38 4
7 9 34 3
7 10 10 2
8 9 40 5
8 10 39 1
9 10 39 8
11 12 39 1
11 13 40 5
11 14 27 5
12 13 41 2
12 14 37 6
13 14 47 5
16 17 32 6
16 18 29 8
16 19 6 7
17 18 5 8
17 19 3 10
18 19 45 8
20 213 34 4
20 123 43 1
20 55 42 4
20 120 40 5
20 37 46 9
20 36 44 4
20 35 30 4
20 30 31 8
20 24 18 2
20 21 40 7
20 22 19 3
21 40 36 5
21 22 5 4
22 173 33 5
22 52 14 1
22 170 23 8
22 216 36 4
22 45 48 7
22 43 2 4
22 42 37 7
23 24 8 1
23 25 45 8
24 25 7 8
26 27 7 10
26 28 29 9
26 29 44 2
26 30 48 6
26 31 42 3
26 32 34 3
26 33 16 6
27 28 2 6
27 29 11 5
27 30 45 3
27 31 42 9
27 32 23 2
27 33 18 7
28 29 20 10
28 30 47 6
28 31 24 7
28 32 31 2
28 33 9 7
29 30 40 9
29 31 38 3
29 32 47 6
29 33 30 3
30 31 1 5
30 32 30 7
30 33 28 5
31 32 40 8
31 33 15 5
32 33 2 4
34 35 13 1
38 39 44 1
38 40 14 2
39 40 22 7
41 42 35 4
43 44 25 4
45 46 48 3
45 47 13 2
45 48 11 8
45 49 1 7
46 47 42 7
46 48 30 5
46 49 34 4
47 48 27 5
47 49 13 1
48 49 25 6
50 120 45 10
50 71 22 7
50 69 44 7
50 68 5 6
50 62 19 7
50 57 37 2
50 51 37 5
50 52 50 1
50 53 48 7
50 54 2 9
50 55 45 2
50 56 50 9
51 217 30 9
51 122 25 9
51 86 33 4
51 85 43 4
51 80 19 4
51 77 18 2
51 75 38 2
51 73 50 10
51 52 45 2
51 53 39 9
51 54 33 1
51 55 20 6
51 56 50 6
52 211 12 2
52 95 36 2
52 92 36 3
52 91 40 3
52 53 38 5
52 54 2 7
52 55 14 9
52 56 22 2
53 101 22 6
53 54 39 6
53 55 2 4
53 56 2 6
54 106 31 8
54 102 25 5
54 55 41 9
54 56 23 6
55 170 12 5
55 113 35 5
55 111 12 1
55 110 18 4
55 56 7 5
56 117 21 5
57 58 50 8
57 59 25 8
57 60 33 8
57 61 1 1
58 59 49 6
58 60 29 4
58 61 27 5
59 60 18 2
59 61 12 9
60 61 21 5
63 64 19 2
63 65 20 5
63 66 17 10
63 67 26 7
63 68 47 9
64 65 40 3
64 66 19 5
64 67 28 6
64 68 47 1
65 66 16 6
65 67 14 2
65 68 6 8
66 67 30 2
66 68 20 6
67 68 27 8
69 70 17 5
72 73 8 7
74 75 49 1
74 76 33 2
75 76 7 4
77 78 16 6
79 80 9 10
81 82 1 6
81 83 16 3
81 84 20 3
81 85 6 4
82 83 14 9
82 84 2 5
82 85 48 7
83 84 47 7
83 85 6 3
84 85 2 5
86 87 42 1
86 88 31 10
86 89 35 6
87 88 37 7
87 89 42 1
88 89 50 7
90 91 24 6
93 94 5 9
93 95 43 2
93 96 47 9
93 97 5 3
93 98 8 6
94 95 17 4
94 96 22 10
94 97 12 3
94 98 29 9
95 96 50 1
95 97 35 9
95 98 50 8
96 97 41 8
96 98 24 7
97 98 30 1
99 100 3 8
99 101 1 5
100 101 38 3
103 104 41 10
103 105 3 3
103 106 32 4
103 107 21 2
104 105 30 9
104 106 5 10
104 107 25 7
105 106 25 6
105 107 33 2
106 107 45 6
108 109 23 2
108 110 48 2
109 110 32 4
112 113 7 10
112 114 50 2
112 115 46 5
112 116 50 5
113 114 27 10
113 115 40 1
113 116 23 4
114 115 35 6
114 116 16 3
115 116 11 3
117 118 47 9
117 119 47 3
118 119 30 7
120 210 30 1
120 129 5 9
120 127 4 8
120 125 3 8
120 121 20 9
120 122 26 8
120 123 27 7
120 124 36 6
121 213 19 8
121 144 27 4
121 142 18 7
121 137 22 5
121 136 28 8
121 122 5 5
121 123 37 9
121 124 14 9
122 172 32 8
122 159 3 7
122 156 15 9
122 154 8 4
122 149 41 1
122 146 1 7
122 123 18 3
122 124 31 4
123 166 5 7
123 161 28 6
123 124 13 5
124 172 40 1
124 169 13 8
126 127 19 9
126 128 22 4
127 128 4 8
129 130 33 9
129 131 1 10
129 132 47 2
129 133 14 4
130 131 32 9
130 132 49 2
130 133 21 2
131 132 12 2
131 133 39 7
132 133 11 2
134 135 26 3
134 136 38 1
135 136 4 8
137 138 41 1
137 139 36 5
137 140 18 4
138 139 47 3
138 140 21 7
139 140 10 3
141 142 48 6
141 143 44 7
142 143 15 5
144 145 26 8
147 148 33 5
147 149 43 10
147 150 39 1
147 151 12 5
148 149 2 3
148 150 47 5
148 151 8 5
149 150 11 1
149 151 16 4
150 151 40 2
152 153 50 5
152 154 39 6
153 154 12 3
155 156 27 1
157 158 32 8
157 159 11 6
157 160 37 3
158 159 26 6
158 160 49 1
159 160 24 4
161 162 19 8
161 163 23 2
161 164 18 2
161 165 40 4
162 163 12 7
162 164 16 3
162 165 11 8
163 164 7 10
163 165 37 1
164 165 13 5
167 168 38 1
167 169 20 9
168 169 29 9
170 213 10 3
170 181 6 7
170 178 36 5
170 174 47 2
170 171 14 2
170 172 33 7
170 173 44 10
171 184 37 4
171 172 49 5
171 173 7 5
172 218 29 7
172 200 50 1
172 198 26 2
172 194 11 8
172 192 15 9
172 191 38 4
172 187 7 8
172 173 17 9
173 209 2 8
173 206 10 1
175 176 50 6
175 177 15 5
175 178 46 4
175 179 47 4
176 177 49 10
176 178 28 8
176 179 18 9
177 178 29 8
177 179 39 4
178 179 25 5
180 181 40 8
180 182 29 4
181 182 17 9
183 184 29 9
183 185 41 10
184 185 22 2
186 187 42 6
186 188 47 1
186 189 35 1
187 188 38 9
187 189 4 2
188 189 33 10
190 191 15 6
193 194 38 8
193 195 18 8
193 196 50 5
194 195 3 6
194 196 29 3
195 196 47 10
197 198 30 7
199 200 20 2
199 201 18 10
199 202 42 8
199 203 29 10
200 201 21 9
200 202 31 2
200 203 16 2
201 202 50 1
201 203 27 6
202 203 13 4
204 205 19 1
204 206 4 4
204 207 47 4
204 208 4 2
205 206 17 8
205 207 39 8
205 208 45 9
206 207 23 8
206 208 8 5
207 208 25 10
210 238 49 2
210 236 21 7
210 235 24 2
210 232 9 9
210 226 21 4
210 223 18 1
210 221 6 8
210 211 32 9
210 212 7 9
210 213 20 4
210 214 14 7
210 215 12 1
210 216 44 6
210 217 37 6
210 218 37 1
211 254 30 5
211 252 28 7
211 248 40 6
211 245 42 9
211 241 1 1
211 212 1 3
211 213 19 3
211 214 41 4
211 215 2 2
211 216 48 2
211 217 42 4
211 218 5 6
212 260 39 4
212 258 8 1
212 213 3 10
212 214 6 9
212 215 46 8
212 216 35 4
212 217 1 4
212 218 20 5
213 262 25 10
213 214 29 2
213 215 35 6
213 216 40 4
213 217 45 8
213 218 49 6
214 269 16 1
214 264 46 4
214 215 44 6
214 216 14 9
214 217 34 8
214 218 45 1
215 270 16 7
215 216 31 4
215 217 37 3
215 218 41 2
216 290 49 1
216 286 44 5
216 282 4 5
216 278 22 8
216 277 11 4
216 273 33 4
216 217 48 4
216 218 42 8
217 294 17 8
217 291 15 1
217 218 47 8
218 297 13 2
219 220 2 6
219 221 14 4
220 221 2 5
222 223 44 4
222 224 18 9
222 225 27 10
223 224 48 10
223 225 46 5
224 225 50 3
227 228 8 3
227 229 46 8
227 230 25 3
227 231 30 8
227 232 48 10
227 233 3 7
228 229 6 3
228 230 17 7
228 231 37 9
228 232 49 2
228 233 27 1
229 230 42 10
229 231 4 9
229 232 14 5
229 233 4 6
230 231 44 1
230 232 21 3
230 233 38 8
231 232 21 2
231 233 14 9
232 233 34 8
234 235 1 9
237 238 47 7
237 239 18 6
238 239 3 3
240 241 41 6
240 242 43 1
240 243 25 1
240 244 22 3
241 242 35 1
241 243 12 8
241 244 2 5
242 243 47 2
242 244 49 8
243 244 44 10
246 247 31 4
246 248 18 10
246 249 47 3
246 250 21 3
247 248 20 6
247 249 40 1
247 250 15 8
248 249 22 3
248 250 6 4
249 250 27 9
251 252 10 3
253 254 34 3
255 256 29 5
255 257 38 8
255 258 37 1
256 257 12 10
256 258 11 4
257 258 31 4
259 260 23 6
261 262 3 4
261 263 37 2
262 263 11 4
264 265 16 9
264 266 50 5
265 266 22 7
267 268 40 2
267 269 44 10
268 269 25 3
270 271 26 4
270 272 50 6
271 272 40 3
273 274 3 9
273 275 21 8
273 276 10 1
274 275 24 7
274 276 35 8
275 276 17 3
279 280 25 7
279 281 37 4
279 282 17 10
279 283 24 10
279 284 14 4
279 285 49 8
280 281 30 6
280 282 14 8
280 283 21 1
280 284 50 10
280 285 4 3
281 282 35 8
281 283 10 7
281 284 10 10
281 285 41 5
282 283 17 3
282 284 32 4
282 285 12 10
283 284 7 8
283 285 38 8
284 285 25 5
287 288 33 6
287 289 14 3
287 290 1 2
288 289 7 8
288 290 35 2
289 290 50 8
291 292 22 8
293 294 10 5
293 295 29 5
293 296 41 5
294 295 25 8
294 296 5 6
295 296 28 3
297 298 44 1
297 299 10 9
298 299 15 8
121 56 44 7
217 173 29 7
120 52 28 10
171 210 23 10
217 1 13 5
124 0 32 2
1 120 31 3
122 21 2 10
213 22 43 3
211 51 34 9
53 223 43 8
56 239 6 2
217 183 3 5
52 258 11 8
210 239 21 2
217 36 28 6
173 256 31 1
0 47 12 8
122 197 2 5
214 37 25 5
213 181 50 1
51 276 37 4
121 106 41 1
0 281 6 8
171 276 17 6
172 37 32 7
124 69 13 7
217 7 28 1
214 276 46 3
120 109 32 9
216 84 39 5
170 272 23 9
55 168 21 5
54 275 42 5
213 47 5 6
218 209 44 10
121 133 13 6
122 141 27 7
216 168 17 3
171 155 6 3
52 152 36 8
120 277 17 6
172 150 36 10
216 80 20 3
212 137 19 7
122 91 36 3
21 37 21 4
22 296 15 6
20 132 29 7
214 177 32 4
217 261 34 1
170 226 19 3
120 114 12 3
122 182 3 10
120 61 45 4
21 206 45 4
51 290 45 4
50 5 1 3
21 233 3 2
21 299 29 3
218 82 30 10
217 265 40 1
210 245 35 9
56 90 42 1
56 258 10 10
20 230 21 3
1 291 10 4
21 197 1 10
173 85 6 8
121 35 34 8
122 178 18 9
213 105 21 7
217 28 8 4
121 207 7 2
212 162 22 3
216 45 38 1
173 77 40 9
124 250 23 9
171 264 18 2
122 148 35 2
123 9 45 8
56 23 42 1
121 117 47 8
122 16 3 2
171 285 13 5
20 41 26 9
215 292 21 1
54 134 13 7
54 264 40 3
210 228 29 4
122 108 18 9
172 125 19 1
21 102 31 8
124 295 40 1
214 239 47 9
54 251 21 4
212 230 9 1
53 253 29 7
20 104 12 5
212 69 10 7
170 133 29 5
171 87 47 4
173 275 2 3
51 79 36 6
214 140 32 4
170 26 6 5
172 118 45 5
215 291 18 4
56 73 13 7
54 74 13 1
52 161 5 10
51 188 38 10
20 285 22 5
55 153 26 3
21 74 2 2
217 112 15 7
21 10 40 2
22 92 9 10
170 253 25 8
214 209 47 4
214 64 47 9
52 44 47 7
53 96 15 6
56 13 45 9
50 176 34 1
22 204 48 4
21 126 41 4
212 36 17 8
170 11 42 10
53 163 49 1
55 75 34 1
171 139 24 8
173 279 1 7
212 2 27 2
53 68 44 4
170 65 20 10
211 162 20 4
56 89 21 4
173 185 42 7
172 193 18 10
172 139 37 8
215 197 7 3
121 248 8 6
215 221 37 7
21 256 40 6
51 209 36 9
212 271 49 5
218 188 15 9
173 26 7 3
20 164 13 7
215 220 10 1
120 36 28 6
123 298 34 3
0 64 10 3
120 72 22 8
120 254 14 9
22 15 43 7
120 265 40 2
20 141 6 10
215 25 8 3
214 61 36 3
123 183 19 5
124 239 19 3
123 35 26 2
54 70 25 1
53 278 32 10
216 49 35 5
55 206 23 7
20 32 11 9
218 103 11 8
53 128 27 9
211 209 32 10
172 269 28 10
124 79 35 2
214 260 33 10
218 231 34 1
171 131 4 5
56 297 35 6
215 154 32 6
52 59 17 1
213 97 18 7
1 274 33 1
55 242 18 4
213 30 10 3
21 208 43 10
20 100 14 3
55 95 48 2
123 109 35 7
52 26 37 1
0 112 43 10
52 117 42 4
21 198 47 9
56 245 46 2
54 292 10 7
55 297 26 7
55 144 31 7
0 85 25 7
171 225 4 4
22 168 49 10
121 165 34 4
1 151 42 4
21 241 13 9
211 85 36 7
218 71 26 10
22 267 30 6
170 222 39 10
215 23 19 5
171 147 47 6
170 293 47 8
218 136 26 3
53 239 49 9
1 164 27 2
53 117 35 2
22 49 15 4
22 117 23 4
211 94 34 2
54 5 14 8
212 198 2 8
52 259 42 8
170 256 10 5
1 296 43 2
121 139 2 1
21 242 14 8
50 141 40 10
22 230 37 10
54 193 21 10
123 263 27 2
50 178 18 8
173 16 28 4
121 18 3 4
213 141 4 10
21 158 43 4
212 144 7 6
218 274 13 2
121 113 21 4
213 289 3 6
171 175 11 7
170 84 25 6
212 288 36 3
50 45 35 2
218 43 2 4
56 289 33 1
53 189 35 3
123 106 26 2
124 141 17 3
173 117 32 4
50 208 39 2
124 97 13 4
171 157 8 9
173 293 1 7
53 66 29 5
0 32 44 6
124 9 11 5
54 253 34 5
54 198 5 4
50 125 18 9
0 279 7 1
1 238 25 5
0 231 24 5
50 159 4 2
53 105 39 6
0 273 42 9
124 95 35 9
123 3 5 9
171 11 22 9
173 208 31 1
215 256 50 6
1 163 8 4
124 131 22 5
123 130 5 1
0 82 24 10
173 151 43 10
123 34 43 6
54 168 45 4
0 63 9 1
214 4 17 2
123 118 27 9
0 134 48 7
215 4 4 6
215 9 12 5
171 254 8 6
124 111 11 7
124 287 17 5
171 110 19 2
53 169 4 3
123 242 43 2
171 294 44 3
56 257 33 6
145 40 50 8
223 221 21 1
241 239 31 2
33 157 41 9
183 178 14 10
60 258 6 8
128 156 43 6
239 33 25 9
199 36 11 2
191 135 19 7
256 240 47 8
3 47 32 3
116 273 36 2
197 67 26 9
45 37 31 7
66 244 22 6
181 207 17 3
94 276 31 7
85 195 22 6
106 2 43 4
105 281 22 8
23 292 35 6
276 24 17 1
132 37 42 8
88 18 10 4
274 7 16 7
162 185 32 4
276 222 48 10
177 109 18 4
237 16 4 5
84 154 16 4
96 272 16 3
147 70 45 3
168 81 28 5
84 275 5 4
264 81 20 3
47 71 2 9
199 209 46 10
283 263 20 1
133 49 42 8
201 141 2 4
164 160 3 1
168 23 46 4
43 155 3 7
9 180 49 10
152 114 12 5
191 277 44 8
259 148 36 6
150 237 7 5
111 80 13 7
263 177 10 10
137 86 1 7
46 91 13 5
38 125 25 1
37 141 7 8
169 296 28 2
139 60 19 9
132 97 49 8
12 177 30 1
70 42 9 8
261 227 34 3
87 226 8 5
114 94 35 10
114 49 5 6
279 182 34 3
14 151 1 8
61 38 43 7
226 206 38 4
246 163 47 8
290 107 36 10
293 5 37 8
174 168 15 10
233 140 40 9
40 299 25 8
299 174 38 4
82 33 42 5
45 265 42 8
291 226 31 5
245 281 3 5
11 90 32 2
221 152 16 5
258 242 40 1
245 230 45 7
73 75 21 8
291 35 5 9
147 281 22 10
243 61 5 5
197 127 12 6
12 85 39 1
48 246 29 5
35 16 11 5
49 178 38 3
234 36 7 3
105 135 44 9
57 199 34 4
166 85 20 10
190 207 26 5
65 293 16 5
162 99 46 10
67 45 49 10
92 17 28 9
77 88 48 3
148 250 33 10
90 84 17 7
264 16 25 4
92 148 38 3
285 229 34 8
9 13 34 5
6 23 36 9
115 5 15 7
117 16 34 6
186 16 22 2
155 196 7 2
285 277 24 9
139 204 27 3
41 296 15 9
77 292 4 6
111 178 17 2
134 111 46 10
252 264 48 4
158 5 16 3
228 34 4 10
175 108 8 8
43 11 16 5
125 241 24 5
251 102 15 5
61 31 19 7
295 26 14 4
229 239 32 2
93 143 44 4
251 245 20 4
116 230 35 3
153 8 3 1
253 6 34 7
287 104 37 8
267 68 14 4
69 141 45 10
244 133 29 1
235 70 5 7
87 225 16 7
98 275 2 6
79 95 41 6
250 140 10 4
18 222 14 10
26 163 19 3
277 118 4 10
25 102 36 5
291 166 38 4
26 134 9 3
182 183 14 3
73 160 20 9
186 74 36 9
136 119 23 1
161 169 46 10
167 188 11 10
84 184 42 8
285 129 47 1
227 153 22 10
259 130 29 5
74 169 13 1
15 112 16 4
208 110 34 3
277 128 2 3
292 10 33 8
187 93 48 1
92 48 18 10
296 253 17 6
116 97 46 2
209 89 18 10
82 64 37 1
132 119 49 5
44 101 1 7
236 96 50 1
43 63 28 1
13 157 7 5
222 176 13 4
129 108 24 8
204 96 25 7
58 126 18 2
87 271 10 4
36 141 11 10
252 11 29 3
160 256 26 10
163 103 48 6
270 75 46 1
142 106 35 4
139 112 3 7
163 279 28 7
240 258 3 9
2 132 36 2
62 92 7 7
160 138 26 10
68 235 8 4
272 65 43 7
266 146 27 1
99 89 17 1
185 23 5 9
164 193 42 6
23 201 34 4
139 243 45 1
250 197 11 7
45 70 15 6
248 149 38 2
57 221 22 5
35 63 9 7
256 72 20 10
283 209 34 7
49 99 10 10
271 99 31 9
193 188 26 2
203 108 27 8
26 284 21 8
29 164 13 3
229 65 4 3
220 113 4 3
77 36 23 10
132 244 33 9
298 127 32 1
297 64 29 1
204 229 6 7
72 89 9 2
38 254 39 3
165 197 21 4
15 81 41 5
146 265 10 8
19 27 29 5
141 154 29 3
17 25 12 5
231 249 44 7
61 9 30 9
10 183 31 7
80 287 32 8
239 134 18 1
48 35 23 10
130 126 50 5
70 154 27 5
151 278 2 4
273 294 41 9
49 219 39 8
251 206 31 5
110 40 2 4
32 107 17 6
101 103 26 2
103 243 4 5
128 252 4 8
292 209 22 1
76 146 11 8
269 263 25 5
240 79 12 6
101 279 44 7
260 27 26 3
281 231 5 4
12 82 47 6
131 10 30 10
116 297 18 4
230 271 41 9
154 159 26 7
111 59 13 5
145 91 36 6
97 209 38 4
269 274 11 7
16 153 31 10
242 200 43 9
287 30 2 9
208 251 40 1
208 97 36 7
242 100 36 7
66 183 39 6
95 188 16 5
49 109 24 5
128 5 22 4
26 236 3 2
242 112 32 2
148 177 3 8
117 104 8 5
185 198 46 6
271 67 4 5
245 178 7 2
150 292 7 6
100 188 42 5
297 23 1 4
64 144 47 3
183 293 8 3
85 235 35 7
107 225 6 3
168 240 31 7
236 165 29 5
30 159 42 5
151 227 48 4
284 241 31 8
240 7 30 9
85 107 29 4
91 71 14 10
114 33 20 4
267 17 13 1
7 222 6 7
100 202 29 6
23 199 12 8
139 147 49 3
143 298 28 6

0 99 47
1 128 27
2 5 67
3 61 128
4 18 73
5 66 109
6 156 40
7 72 41
8 76 22
9 265 89
10 281 85
11 113 101
12 127 22
13 208 75
14 221 36
15 224 78
16 201 71
17 132 207
18 206 109
19 103 76
20 194 42
21 131 65
22 246 61
23 157 43
24 23 181
25 293 46
26 7 108
27 233 52
28 44 33
29 183 102
30 219 26
31 165 93
32 199 96
33 24 25
34 149 81
35 78 5
36 35 43
37 188 62
38 174 57
39 279 134
40 150 100
41 59 93
42 271 116
43 143 81
44 276 93
45 186 56
46 235 46
47 142 48
48 176 103
49 238 76
50 134 94
51 39 28
52 269 35
53 285 181
54 195 39
55 68 138
56 286 21
57 69 84
58 63 40
59 244 98
60 200 108
61 294 42
62 98 60
63 86 98
64 177 125
65 2 72
66 74 42
67 136 74
68 112 67
69 266 51
70 257 64
71 16 50
72 280 88
73 290 67
74 262 12
75 250 92
76 178 175
77 162 95
78 82 132
79 160 71
80 154 67
81 81 78
82 230 108
83 241 40
84 4 22
85 77 43
86 287 47
87 91 55
88 298 53
89 30 117
90 33 136
91 26 84
92 161 64
93 147 194
94 105 136
95 57 93
96 275 24
97 249 126
98 282 66
99 148 94
100 60 30
101 89 131
102 25 34
103 191 24
104 83 49
105 45 187
106 140 77
107 267 46
108 247 70
109 153 72
110 155 23
111 234 6
112 227 65
113 189 55
114 41 43
115 193 147
116 260 56
117 79 88
118 228 85
119 94 64
120 12 141
121 15 87
122 71 40
123 222 105
124 106 98
125 273 119
126 107 92
127 42 52
128 62 12
129 97 212
130 220 9
131 31 144
132 207 90
133 272 62
134 85 72
