300 1169 135

910

0 262 24 4
0 71 1 2
0 260 29 2
0 12 43 1
0 10 4 7
0 9 46 2
0 1 24 8
0 2 50 1
0 3 32 2
0 4 16 4
0 5 12 1
0 6 33 8
1 200 41 10
1 221 4 1
1 26 36 6
1 24 25 7
1 21 33 6
1 18 45 1
1 2 45 7
1 3 30 6
1 4 48 1
1 5 13 1
1 6 39 3
2 122 29 3
2 33 34 5
2 28 32 1
2 3 2 8
2 4 26 9
2 5 30 3
2 6 35 9
3 200 38 5
3 41 3 3
3 36 44 9
3 34 20 10
3 4 26 3
3 5 48 7
3 6 24 10
4 71 44 7
4 122 12 10
4 53 30 7
4 50 16 4
4 48 20 6
4 44 13 1
4 5 47 2
4 6 7 4
5 66 35 7
5 61 6 9
5 60 49 1
5 56 12 4
5 6 8 1
6 223 22 2
6 69 19 1
7 8 45 7
7 9 14 1
8 9 49 1
11 12 11 6
11 13 11 1
11 14 4 4
11 15 15 4
12 13 8 5
12 14 25 1
12 15 14 3
13 14 41 7
13 15 42 8
14 15 41 5
16 17 16 1
16 18 9 3
16 19 37 1
17 18 13 9
17 19 15 2
18 19 39 2
20 21 29 8
20 22 1 9
20 23 6 6
21 22 9 4
21 23 30 1
22 23 24 10
25 26 7 5
25 27 23 4
26 27 36 1
29 30 19 3
29 31 9 9
29 32 31 4
29 33 45 8
30 31 25 3
30 32 7 3
30 33 39 4
31 32 13 2
31 33 45 7
32 33 36 9
34 35 23 3
36 37 24 1
36 38 31 2
37 38 11 1
39 40 27 7
39 41 46 9
39 42 33 4
40 41 22 6
40 42 39 7
41 42 1 9
43 44 46 8
43 45 4 7
43 46 6 3
44 45 31 7
44 46 35 10
45 46 33 1
47 48 7 1
47 49 22 3
48 49 40 7
51 52 13 5
51 53 7 4
51 54 41 9
52 53 20 3
52 54 38 7
53 54 14 6
55 56 15 2
55 57 15 1
56 57 19 3
58 59 10 9
58 60 32 10
59 60 2 8
62 63 11 9
62 64 7 7
62 65 34 8
62 66 48 5
63 64 16 6
63 65 36 6
63 66 25 7
64 65 36 2
64 66 25 4
65 66 49 2
67 68 23 6
67 69 35 1
68 69 48 8
70 262 14 6
70 75 3 8
70 71 22 6
70 72 33 4
70 73 49 8
70 74 46 1
71 220 34 9
71 82 46 3
71 81 21 9
71 80 46 8
71 72 35 3
71 73 43 8
71 74 12 10
72 122 44 2
72 120 17 5
72 223 43 3
72 261 2 6
72 101 4 5
72 99 36 5
72 94 5 4
72 90 35 1
72 89 13 7
72 73 30 5
72 74 6 4
73 201 8 2
73 107 47 2
73 104 33 10
73 74 30 5
74 200 30 1
74 119 13 2
74 117 43 1
74 115 46 4
74 111 40 8
75 76 48 10
75 77 30 8
76 77 34 4
78 79 43 9
78 80 38 1
79 80 12 8
82 83 50 10
82 84 12 9
82 85 36 8
82 86 2 10
83 84 8 5
83 85 21 7
83 86 50 2
84 85 42 5
84 86 21 9
85 86 48 6
87 88 12 10
87 89 47 9
88 89 28 3
90 91 1 7
90 92 37 6
90 93 21 10
91 92 38 9
91 93 4 9
92 93 4 8
94 95 8 7
94 96 21 10
94 97 30 9
94 98 40 9
95 96 29 3
95 97 29 3
95 98 7 8
96 97 20 3
96 98 47 2
97 98 47 4
99 100 39 5
102 103 2 5
102 104 49 8
103 104 48 3
105 106 21 7
105 107 18 1
106 107 28 6
108 109 2 8
108 110 20 4
108 111 12 5
108 112 36 8
108 113 5 5
109 110 6 7
109 111 38 10
109 112 50 6
109 113 20 7
110 111 26 2
110 112 27 10
110 113 38 5
111 112 46 7
111 113 16 6
112 113 33 7
114 115 3 6
114 116 34 8
115 116 28 4
117 118 12 6
120 132 14 9
120 128 36 10
120 121 39 8
120 122 1 10
120 123 38 6
120 124 6 9
120 125 25 5
120 126 11 3
120 127 41 6
121 221 4 3
121 200 44 1
121 143 10 6
121 140 38 5
121 138 25 6
121 134 20 3
121 122 49 10
121 123 44 4
121 124 45 2
121 125 46 9
121 126 43 1
121 127 30 7
122 150 11 10
122 146 43 5
122 123 40 3
122 124 41 2
122 125 46 3
122 126 2 7
122 127 35 3
123 200 24 1
123 157 34 7
123 155 15 10
123 124 34 3
123 125 18 1
123 126 22 7
123 127 33 1
124 161 49 6
124 158 43 5
124 125 41 7
124 126 10 8
124 127 24 4
125 223 1 1
125 262 23 2
125 178 26 5
125 177 15 2
125 171 49 4
125 168 27 5
125 164 23 8
125 126 30 3
125 127 13 7
126 187 44 3
126 186 4 1
126 181 22 10
126 127 33 2
127 263 37 2
127 197 25 10
127 194 21 6
127 193 50 6
127 189 23 7
128 129 50 3
128 130 34 7
128 131 26 10
129 130 6 5
129 131 9 4
130 131 4 3
132 133 19 10
134 135 20 4
136 137 20 9
136 138 43 9
137 138 48 5
139 140 17 2
139 141 41 3
139 142 45 5
140 141 8 10
140 142 27 3
141 142 39 1
143 144 6 10
143 145 21 5
144 145 19 6
146 147 34 9
146 148 16 3
147 148 3 7
149 150 11 8
149 151 29 10
150 151 4 10
152 153 25 3
152 154 39 2
152 155 16 2
152 156 25 9
153 154 47 6
153 155 7 9
153 156 27 8
154 155 14 2
154 156 49 5
155 156 26 7
158 159 33 6
160 161 23 10
160 162 19 1
160 163 19 1
161 162 14 9
161 163 8 6
162 163 9 8
165 166 34 4
165 167 24 2
165 168 32 2
165 169 49 9
165 170 50 8
166 167 40 7
166 168 11 10
166 169 26 3
166 170 45 2
167 168 23 3
167 169 23 6
167 170 50 6
168 169 36 4
168 170 49 3
169 170 41 4
171 172 28 6
171 173 39 1
171 174 43 6
171 175 46 10
171 176 3 8
172 173 47 4
172 174 38 7
172 175 21 9
172 176 29 2
173 174 20 10
173 175 48 6
173 176 2 4
174 175 8 8
174 176 48 3
175 176 17 7
179 180 16 7
179 181 32 3
179 182 19 9
179 183 45 4
179 184 39 5
179 185 29 5
180 181 11 1
180 182 33 2
180 183 2 2
180 184 5 4
180 185 33 5
181 182 28 1
181 183 20 6
181 184 28 3
181 185 1 9
182 183 37 1
182 184 10 9
182 185 10 6
183 184 46 5
183 185 5 7
184 185 50 2
188 189 40 1
188 190 38 2
188 191 37 9
188 192 17 10
189 190 43 4
189 191 32 4
189 192 31 2
190 191 23 2
190 192 21 4
191 192 24 8
194 195 50 5
194 196 20 4
195 196 23 10
197 198 26 7
197 199 5 2
198 199 7 7
200 220 1 2
200 263 43 3
200 207 25 5
200 206 26 7
200 202 12 5
200 201 28 7
201 261 29 10
201 221 49 9
201 219 24 5
201 214 27 2
201 211 45 8
202 203 3 8
202 204 49 3
203 204 18 7
205 206 12 10
207 208 20 3
207 209 1 3
207 210 46 1
208 209 44 4
208 210 27 7
209 210 17 10
211 212 46 6
211 213 22 7
212 213 8 6
214 215 27 3
214 216 36 3
214 217 20 7
214 218 39 10
215 216 43 1
215 217 21 10
215 218 48 3
216 217 48 6
216 218 5 2
217 218 40 5
220 262 21 10
220 244 35 4
220 240 42 7
220 238 38 7
220 234 26 1
220 231 32 4
220 226 3 9
220 224 37 2
220 221 50 8
220 222 35 7
220 223 49 1
221 248 47 10
221 245 26 7
221 222 38 2
221 223 47 6
222 263 49 10
222 251 41 4
222 223 14 10
223 259 7 7
223 255 39 9
224 225 33 4
227 228 48 3
227 229 13 3
227 230 9 9
227 231 13 9
227 232 2 2
227 233 21 5
228 229 20 5
228 230 46 7
228 231 29 1
228 232 29 1
228 233 7 2
229 230 22 9
229 231 39 6
229 232 44 8
229 233 34 7
230 231 1 3
230 232 46 6
230 233 32 1
231 232 48 7
231 233 20 2
232 233 50 4
235 236 20 2
235 237 8 8
235 238 7 7
235 239 12 5
236 237 43 7
236 238 40 2
236 239 38 2
237 238 32 9
237 239 2 4
238 239 17 8
241 242 39 8
241 243 22 6
241 244 19 4
242 243 18 6
242 244 41 5
243 244 4 2
246 247 42 9
246 248 25 9
246 249 9 6
246 250 40 9
247 248 5 7
247 249 34 2
247 250 33 7
248 249 37 3
248 250 26 5
249 250 10 10
251 252 49 2
251 253 46 3
252 253 44 8
254 255 22 2
256 257 32 10
256 258 16 2
256 259 20 7
257 258 39 1
257 259 50 8
258 259 20 6
260 271 29 9
260 268 45 10
260 264 27 5
260 261 1 7
260 262 12 10
260 263 32 8
261 275 49 8
261 262 44 5
261 263 46 4
262 287 40 8
262 286 43 8
262 284 48 1
262 281 50 9
262 277 17 6
262 263 40 1
263 297 50 6
263 295 37 2
263 292 6 1
265 266 17 9
265 267 20 1
265 268 8 7
266 267 31 8
266 268 22 10
267 268 24 2
269 270 11 10
269 271 49 9
269 272 40 3
270 271 33 6
270 272 7 6
271 272 2 7
273 274 45 1
273 275 30 4
274 275 1 9
276 277 38 4
276 278 22 10
276 279 11 10
276 280 2 5
277 278 41 2
277 279 28 7
277 280 41 3
278 279 32 10
278 280 22 4
279 280 21 5
282 283 48 9
282 284 3 8
282 285 28 4
283 284 48 1
283 285 32 4
284 285 36 7
287 288 12 9
287 289 13 7
287 290 48 6
288 289 28 7
288 290 30 7
289 290 12 4
291 292 1 6
291 293 34 1
291 294 27 9
292 293 17 9
292 294 30 10
293 294 36 9
295 296 24 7
297 298 34 4
297 299 23 7
298 299 14 7
71 5 26 6
121 74 7 10
1 263 44 9
262 200 30 3
120 70 39 4
126 201 28 9
262 1 34 4
124 0 35 4
1 120 15 3
122 3 35 1
71 215 26 1
74 235 17 7
262 182 32 6
70 254 48 1
201 235 46 1
262 38 31 2
200 252 12 2
0 49 43 4
122 196 26 8
223 39 36 9
222 180 5 6
6 276 48 9
121 106 20 10
0 281 2 6
126 276 5 8
127 39 36 6
124 64 41 2
262 12 26 9
223 276 31 2
120 109 44 5
261 84 3 4
125 272 17 6
73 171 44 10
72 275 30 8
222 49 5 5
263 210 24 6
121 136 19 10
122 144 46 9
261 171 32 1
126 158 34 4
70 155 5 1
120 277 12 10
127 153 30 7
261 80 41 2
221 140 32 3
122 91 50 7
3 39 41 10
4 296 41 6
2 135 1 1
223 176 31 3
262 257 19 3
125 218 6 6
120 114 30 6
122 181 25 8
120 56 11 5
3 207 19 10
6 290 37 4
5 10 18 6
3 229 41 10
3 299 8 8
263 82 45 4
262 265 48 4
201 241 46 5
74 90 30 2
74 254 23 5
2 226 21 2
1 291 15 4
3 196 20 3
200 85 22 8
121 37 11 1
122 177 33 8
222 105 34 3
262 30 30 10
0 169 5 1
6 208 34 1
73 165 17 2
123 47 25 6
74 77 31 5
6 246 44 6
3 264 37 8
74 151 13 1
220 14 11 6
4 25 14 10
222 21 14 6
2 285 4 8
220 95 50 1
261 43 44 2
220 292 3 2
220 137 50 8
73 264 44 8
127 224 27 7
122 108 32 3
221 128 19 4
125 102 46 9
223 295 9 3
223 235 38 4
200 247 13 6
201 226 7 3
200 249 13 4
72 104 20 2
71 64 22 8
222 136 49 1
221 87 28 6
2 275 46 3
120 79 12 5
260 143 11 7
73 28 23 4
1 118 28 3
125 291 20 4
5 137 30 5
127 68 28 10
72 69 15 9
200 164 38 9
125 187 45 4
4 285 47 10
124 156 40 9
122 69 27 10
261 112 45 5
124 277 29 5
263 15 9 3
123 92 45 7
1 249 42 9
73 210 35 7
222 59 21 10
74 46 1 5
72 96 43 9
120 18 13 8
127 175 3 7
6 205 34 2
71 129 40 8
70 38 40 7
201 16 48 5
124 166 20 6
260 75 2 1
222 142 25 8
223 279 40 5
4 7 25 7
260 92 36 7
220 63 4 10
74 60 23 1
120 165 13 10
0 89 35 1
221 184 1 4
71 192 49 6
0 142 1 10
74 196 24 9
127 244 35 6
127 213 28 6
223 252 40 7
221 210 30 9
127 271 3 3
6 187 43 7
220 28 45 8
74 167 25 3
73 212 37 3
220 38 16 5
121 298 31 9
0 59 33 3
74 67 28 2
2 250 9 3
123 20 33 8
72 265 32 4
2 144 1 10
260 27 20 9
223 56 42 6
121 182 42 2
123 235 44 10
71 65 28 3
70 278 50 1
261 51 16 4
221 207 25 4
123 34 25 1
222 103 47 9
126 131 18 3
121 210 50 2
200 269 6 2
5 79 5 10
201 256 50 6
73 227 27 6
73 134 11 9
223 297 10 10
71 157 18 2
200 54 36 9
2 97 36 4
223 274 42 9
125 238 17 2
223 32 30 10
3 209 48 2
2 100 16 5
126 95 20 7
123 109 38 2
120 28 12 9
0 112 26 2
72 117 8 5
3 197 7 3
5 241 31 5
2 292 11 10
261 297 46 9
221 147 38 8
1 85 46 10
200 217 30 2
123 168 40 8
222 154 27 3
260 237 15 1
222 66 37 3
3 267 45 1
123 214 48 4
223 25 27 6
261 150 23 9
1 293 5 3
222 139 12 8
124 235 11 10
263 167 31 10
221 117 20 8
201 51 49 7
201 207 25 9
201 117 36 1
222 94 16 4
124 10 34 8
263 197 16 5
72 255 2 5
263 252 2 4
263 296 9 3
124 142 20 9
6 238 26 5
263 144 30 10
6 192 45 3
5 259 25 1
126 177 43 9
4 23 24 4
123 144 42 9
2 161 42 4
4 147 48 9
123 274 15 4
221 113 28 1
260 289 41 9
201 174 37 9
126 84 1 9
201 288 28 2
261 47 49 1
261 45 50 10
126 289 45 6
260 188 8 10
201 106 15 7
261 144 24 3
260 117 39 10
126 209 3 4
5 134 30 6
4 97 13 2
5 160 49 6
260 293 15 3
73 61 44 5
201 34 42 1
260 14 9 7
70 249 42 5
261 197 11 3
126 128 5 9
6 279 34 3
261 234 15 3
2 227 11 5
6 162 5 9
5 105 17 6
221 273 31 2
263 95 4 10
222 8 41 10
261 16 39 3
73 14 21 1
222 209 41 4
5 166 9 6
124 134 9 5
73 133 7 6
4 82 26 9
124 36 16 10
71 171 49 2
263 58 35 4
222 9 30 9
73 118 47 8
6 137 8 5
6 9 29 6
124 250 32 5
221 111 8 5
221 287 17 4
260 110 35 6
70 172 19 2
73 238 15 7
71 294 35 4
260 253 21 8
70 108 21 5
70 224 23 7
71 113 12 2
70 45 4 8
260 167 40 1
70 63 20 10
70 139 47 3
70 237 23 5
70 297 14 9
148 42 46 2
215 213 42 8
35 160 31 9
182 177 37 6
55 254 4 4
131 159 4 9
235 35 22 3
198 38 34 10
190 138 19 9
252 236 18 9
8 49 14 9
116 273 20 7
196 62 45 3
47 39 42 7
61 240 38 3
180 208 36 10
94 276 27 1
85 194 32 1
106 7 12 6
105 281 24 10
25 292 10 6
276 26 28 5
135 39 12 4
88 23 22 1
274 12 32 1
165 184 10 3
276 214 18 1
176 109 46 2
233 21 39 4
84 157 6 2
96 272 5 8
150 65 7 5
171 81 1 10
84 275 15 6
264 81 4 10
49 66 19 5
198 210 44 4
283 259 44 10
136 51 12 1
202 144 38 8
167 163 10 9
171 25 31 5
45 158 11 2
14 179 35 8
155 114 8 3
190 277 34 1
255 151 35 5
153 233 46 2
111 80 32 9
259 176 37 10
140 86 15 1
48 91 18 10
40 128 34 10
39 144 29 4
172 296 23 4
142 55 33 2
135 97 3 4
17 176 48 4
65 44 12 8
257 219 3 1
87 218 33 3
114 94 24 6
114 51 2 5
279 181 13 8
19 154 36 1
56 40 19 8
218 207 41 10
242 166 4 9
290 107 31 2
293 10 31 7
229 143 37 7
42 299 18 3
299 173 7 9
82 35 33 3
47 265 25 9
291 218 49 6
241 281 50 7
16 90 22 1
213 155 26 5
254 238 2 10
241 226 5 5
68 75 43 5
291 37 9 2
150 281 50 2
239 56 38 7
196 130 29 5
17 85 33 5
50 242 49 7
37 21 5 6
51 177 27 8
230 38 2 9
105 138 13 4
28 30 7 3
52 198 26 5
169 85 14 2
189 208 27 8
60 293 12 8
165 99 15 5
62 47 49 1
92 22 34 8
77 88 40 1
151 246 47 8
90 84 36 5
264 21 43 1
92 151 29 2
285 225 31 3
14 18 18 6
11 25 16 3
115 10 46 9
117 21 36 6
185 21 44 6
158 195 33 3
285 277 45 1
142 205 29 3
43 296 43 9
77 292 44 5
111 177 37 8
137 111 17 10
248 264 26 5
161 10 34 10
224 36 18 1
174 108 27 1
45 16 1 9
128 237 28 9
247 102 11 2
56 33 34 3
295 28 20 6
225 235 25 3
93 146 32 10
247 241 44 10
116 226 28 9
156 13 6 9
249 11 4 7
287 104 45 4
267 63 45 2
64 144 11 3
240 136 13 6
231 65 31 9
87 217 45 9
98 275 34 8
79 95 26 6
246 143 42 4
23 214 50 7
28 166 37 3
277 118 17 6
27 102 31 6
291 169 23 7
28 137 7 1
68 163 33 7
185 69 39 2
139 119 34 3
164 172 12 9
170 187 5 3
84 183 27 6
285 132 24 7
219 156 36 7
255 133 35 5
69 172 37 1
20 112 20 9
209 110 36 5
277 131 7 8
292 15 5 4
186 93 25 3
92 50 1 1
296 249 36 7
116 97 2 9
210 89 49 9
82 59 47 10
135 119 37 9
46 101 24 2
232 96 18 2
45 58 9 4
18 160 46 9
214 175 8 10
132 108 38 7
205 96 41 1
53 129 28 4
87 271 9 9
38 144 26 9
248 16 1 1
163 252 39 5
166 103 50 5
270 75 1 6
145 106 34 7
142 112 22 7
166 279 26 3
236 254 23 1
7 135 13 6
57 92 44 3
163 141 9 5
63 231 45 3
272 60 3 2
266 149 31 6
99 89 9 7
184 25 30 2
167 192 37 3
25 202 19 9
142 239 10 6
246 196 10 3
47 65 21 1
244 152 45 6
52 213 16 7
37 58 40 8
252 67 36 2
283 210 28 6
51 99 14 6
271 99 3 9
192 187 8 7
204 108 1 3
28 284 13 10
31 167 26 3
225 60 44 10
212 113 29 8
77 38 46 10
135 240 3 10
298 130 47 6
297 59 9 3
205 225 24 2
67 89 22 8
40 250 35 7
168 196 33 2
20 81 20 3
149 265 22 3
24 29 30 7
144 157 49 10
22 27 4 7
227 245 6 7
56 14 37 4
15 182 11 10
80 287 28 1
235 137 45 6
50 37 8 1
133 129 28 9
65 157 15 10
154 278 41 5
273 294 30 4
51 211 8 7
247 207 18 4
110 42 21 2
34 107 12 5
101 103 23 9
103 239 21 2
131 248 44 1
292 210 37 5
76 149 44 7
269 259 41 2
236 79 3 7
101 279 16 4
256 29 26 3
281 227 46 6
17 82 16 8
134 15 11 4
116 297 18 10
226 271 38 3
157 162 6 7
111 54 48 7
148 91 38 9
97 210 29 8
269 274 17 9
21 156 41 3
238 199 22 1
287 32 34 1
209 247 2 2
209 97 36 2
238 100 45 9
61 182 42 4
95 187 16 3
51 109 21 7
131 10 43 7
28 232 43 5
238 112 19 8
151 176 6 2
117 104 10 10
184 197 44 5
271 62 19 10
241 177 40 8
153 292 24 8
100 187 14 4
297 25 8 2
59 147 23 8
182 293 6 3
85 231 33 2
107 217 28 5
245 246 48 1
171 236 45 8
232 168 24 4
32 162 34 8
154 219 4 8
284 237 1 7
236 12 29 6
85 107 8 7
91 66 25 6
114 35 29 9
267 22 18 10
12 214 4 1
100 203 34 4
25 198 3 9
142 150 6 10
146 298 45 6
293 42 7 6

0 176 155
1 31 57
2 213 54
3 161 102
4 160 78
5 272 32
6 232 211
7 15 57
8 170 51
9 117 119
10 178 16
11 296 73
12 41 18
13 60 54
14 135 50
15 205 56
16 271 88
17 226 57
18 286 24
19 180 79
20 142 81
21 251 49
22 299 24
23 48 54
24 199 9
25 79 54
26 98 99
27 87 107
28 270 12
29 158 79
30 250 116
31 186 7
32 217 121
33 75 87
34 108 48
35 175 44
36 157 69
37 284 76
38 174 77
39 204 25
40 99 43
41 59 37
42 78 44
43 38 67
44 91 112
45 130 31
46 280 54
47 248 62
48 218 165
49 229 109
50 26 61
51 279 84
52 264 86
53 28 160
54 44 32
55 292 129
56 139 79
57 82 121
58 152 93
59 113 41
60 173 95
61 77 142
62 179 87
63 145 37
64 12 92
65 242 59
66 85 184
67 230 91
68 95 115
69 246 95
70 285 85
71 65 133
72 147 55
73 238 107
74 16 60
75 192 153
76 69 91
77 68 75
78 241 85
79 103 103
80 144 217
81 92 153
82 36 33
83 110 69
84 25 116
85 240 46
86 146 108
87 216 33
88 239 83
89 19 72
90 287 122
91 134 27
92 196 128
93 90 118
94 111 195
95 198 90
96 140 36
97 23 85
98 167 160
99 53 70
100 32 123
101 249 55
102 225 66
103 227 94
104 7 36
105 131 91
106 187 39
107 88 24
108 133 49
109 13 70
110 253 53
111 291 115
112 112 75
113 105 62
114 236 158
115 195 37
116 10 107
117 283 65
118 39 132
119 118 22
120 141 48
121 109 107
122 210 235
123 20 59
124 181 98
125 29 104
126 171 172
127 96 121
128 165 97
129 83 55
130 153 81
131 137 86
132 252 60
133 194 41
134 8 56
