300 1155 135

830

0 262 22 10
0 210 5 4
0 22 28 8
0 214 32 7
0 261 37 7
0 7 26 9
0 3 47 7
0 2 20 10
0 1 3 10
1 200 1 6
1 126 8 5
1 20 8 9
1 127 3 10
1 19 35 6
1 13 14 8
1 12 11 10
3 4 21 9
3 5 24 10
4 5 10 5
6 7 39 1
6 8 21 1
6 9 2 1
6 10 46 4
7 8 30 7
7 9 39 10
7 10 16 3
8 9 40 5
8 10 2 9
9 10 15 10
11 12 7 8
13 14 41 10
13 15 35 10
13 16 26 2
13 17 23 5
13 18 9 5
14 15 36 7
14 16 4 7
14 17 25 10
14 18 13 8
15 16 34 7
15 17 6 8
15 18 50 6
16 17 13 10
16 18 39 4
17 18 18 8
20 45 41 6
20 43 11 8
20 41 27 9
20 40 14 8
20 37 20 6
20 33 44 6
20 21 42 9
20 22 4 10
20 23 35 4
20 24 46 8
20 25 18 10
20 26 32 7
20 27 26 10
20 28 8 7
20 29 14 1
21 49 15 3
21 22 46 5
21 23 15 8
21 24 32 10
21 25 16 7
21 26 37 3
21 27 20 1
21 28 34 7
21 29 6 9
22 263 10 6
22 59 17 9
22 58 13 6
22 53 31 2
22 23 16 6
22 24 22 8
22 25 22 7
22 26 31 1
22 27 40 3
22 28 37 6
22 29 29 10
23 200 5 9
23 65 17 7
23 64 36 8
23 24 14 7
23 25 36 9
23 26 15 5
23 27 46 2
23 28 9 5
23 29 1 1
24 120 21 2
24 200 3 1
24 76 49 10
24 74 33 3
24 72 43 4
24 68 16 6
24 25 39 2
24 26 39 8
24 27 45 8
24 28 22 9
24 29 36 10
25 79 36 1
25 26 1 10
25 27 18 10
25 28 24 1
25 29 8 10
26 214 12 6
26 83 35 5
26 81 47 1
26 27 14 10
26 28 8 2
26 29 38 4
27 110 23 8
27 109 1 7
27 103 23 7
27 100 47 2
27 97 16 3
27 93 14 7
27 92 12 3
27 88 40 7
27 28 4 3
27 29 16 10
28 262 46 4
28 122 37 9
28 214 37 4
28 115 39 8
28 111 28 6
28 29 18 2
29 117 24 9
30 31 13 1
30 32 14 2
30 33 1 4
30 34 37 8
31 32 50 3
31 33 9 1
31 34 39 8
32 33 7 10
32 34 8 9
33 34 17 3
35 36 48 6
35 37 27 2
35 38 6 4
35 39 48 10
36 37 14 5
36 38 21 10
36 39 49 5
37 38 48 7
37 39 29 9
38 39 8 3
41 42 50 5
44 45 1 6
44 46 5 3
44 47 49 2
45 46 5 4
45 47 33 2
46 47 38 7
48 49 25 8
48 50 12 2
49 50 28 9
51 52 27 3
51 53 5 8
51 54 21 4
51 55 35 6
52 53 20 10
52 54 16 6
52 55 3 2
53 54 10 4
53 55 9 7
54 55 7 3
56 57 25 10
56 58 37 2
57 58 18 3
60 61 1 9
60 62 15 7
60 63 4 8
60 64 5 8
61 62 16 10
61 63 47 8
61 64 18 10
62 63 35 4
62 64 27 4
63 64 10 3
66 67 10 8
66 68 20 3
66 69 50 1
66 70 43 4
67 68 42 6
67 69 28 10
67 70 4 7
68 69 36 9
68 70 12 5
69 70 23 10
71 72 4 4
71 73 12 10
72 73 3 1
74 75 43 8
76 77 3 2
78 79 20 6
78 80 35 8
79 80 18 4
82 83 39 5
82 84 50 7
82 85 48 1
82 86 21 8
83 84 20 1
83 85 46 5
83 86 21 10
84 85 16 5
84 86 6 7
85 86 25 8
87 88 26 6
87 89 27 8
88 89 17 6
90 91 9 8
90 92 27 8
91 92 15 6
93 94 38 5
93 95 12 5
94 95 5 4
96 97 6 1
96 98 19 6
97 98 31 1
99 100 35 1
99 101 3 9
99 102 17 9
100 101 29 5
100 102 18 2
101 102 44 3
103 104 48 10
103 105 1 6
103 106 10 8
104 105 16 5
104 106 15 5
105 106 7 1
107 108 13 2
107 109 19 2
108 109 33 1
111 112 42 1
111 113 50 2
112 113 40 4
114 115 4 10
114 116 24 7
115 116 17 4
117 118 38 4
117 119 20 10
118 119 11 1
120 134 34 5
120 129 7 1
120 128 38 3
120 121 8 3
120 122 49 6
120 123 11 8
120 124 8 2
120 125 25 5
120 126 1 4
120 127 3 10
121 212 21 10
121 150 49 1
121 148 29 1
121 146 38 8
121 145 18 5
121 138 31 3
121 122 39 6
121 123 3 3
121 124 38 8
121 125 6 8
121 126 22 1
121 127 13 5
122 200 30 3
122 261 18 6
122 157 9 10
122 153 11 7
122 123 46 3
122 124 10 3
122 125 29 1
122 126 49 5
122 127 43 7
123 200 41 6
123 211 1 4
123 174 4 8
123 173 43 2
123 170 2 8
123 164 30 4
123 163 17 4
123 160 27 6
123 124 31 2
123 125 41 6
123 126 40 5
123 127 4 3
124 181 31 4
124 178 36 3
124 125 6 4
124 126 5 5
124 127 48 5
125 186 50 8
125 185 28 9
125 126 8 4
125 127 12 2
126 196 44 6
126 194 32 9
126 188 5 5
126 127 13 8
127 260 22 3
127 197 11 2
129 130 27 9
129 131 41 6
130 131 7 9
132 133 16 8
132 134 5 9
132 135 33 4
132 136 8 1
133 134 22 9
133 135 21 4
133 136 42 5
134 135 23 5
134 136 13 1
135 136 40 4
137 138 44 6
137 139 33 3
138 139 16 7
140 141 34 5
140 142 44 8
140 143 22 5
140 144 45 5
140 145 27 7
141 142 30 3
141 143 35 6
141 144 37 4
141 145 23 2
142 143 43 6
142 144 29 5
142 145 48 3
143 144 40 7
143 145 18 10
144 145 26 6
147 148 22 9
149 150 37 9
149 151 36 4
150 151 44 6
152 153 39 3
152 154 35 7
153 154 11 7
155 156 28 1
155 157 21 6
156 157 39 7
158 159 6 8
158 160 18 3
159 160 25 8
161 162 12 4
161 163 4 4
162 163 43 1
165 166 26 2
165 167 41 9
165 168 6 8
165 169 23 7
165 170 25 4
165 171 18 6
166 167 2 4
166 168 40 3
166 169 41 4
166 170 1 4
166 171 24 10
167 168 35 7
167 169 39 2
167 170 46 6
167 171 36 2
168 169 30 5
168 170 6 2
168 171 34 8
169 170 44 10
169 171 44 6
170 171 45 5
172 173 20 4
174 175 2 9
176 177 2 9
176 178 43 9
176 179 45 10
176 180 38 6
177 178 42 2
177 179 24 5
177 180 44 3
178 179 39 4
178 180 48 1
179 180 35 5
182 183 18 4
182 184 26 1
182 185 15 4
183 184 7 9
183 185 12 4
184 185 29 9
186 187 32 4
188 189 10 1
188 190 8 6
188 191 3 2
188 192 29 1
188 193 24 9
189 190 3 6
189 191 32 1
189 192 5 4
189 193 40 3
190 191 10 1
190 192 6 10
190 193 28 10
191 192 23 1
191 193 31 7
192 193 45 1
195 196 30 3
197 198 12 2
197 199 18 7
198 199 15 2
200 263 12 9
200 214 23 5
200 262 33 3
200 207 41 10
200 203 29 4
200 201 11 10
202 203 18 1
202 204 5 4
202 205 23 3
202 206 24 7
203 204 49 2
203 205 46 1
203 206 8 3
204 205 37 5
204 206 48 2
205 206 24 9
207 208 48 10
207 209 7 1
208 209 50 5
210 220 40 8
210 215 2 9
210 211 5 10
210 212 48 7
210 213 17 6
210 214 1 9
211 232 8 6
211 228 11 1
211 227 14 3
211 221 32 9
211 212 4 4
211 213 23 7
211 214 26 10
212 246 21 8
212 244 28 8
212 241 15 2
212 240 17 6
212 233 42 1
212 213 10 9
212 214 11 5
213 263 39 7
213 262 18 3
213 253 34 1
213 251 5 2
213 249 27 9
213 214 40 6
214 259 15 3
215 216 4 7
215 217 29 2
216 217 39 7
218 219 21 6
218 220 32 6
219 220 25 8
221 222 35 3
221 223 42 1
221 224 11 5
221 225 3 7
221 226 50 9
222 223 28 5
222 224 28 1
222 225 5 8
222 226 42 2
223 224 1 3
223 225 7 10
223 226 16 9
224 225 29 4
224 226 45 3
225 226 49 8
229 230 22 3
229 231 20 3
229 232 7 4
230 231 13 4
230 232 32 6
231 232 28 5
233 234 35 2
233 235 43 6
233 236 36 2
233 237 48 3
233 238 24 5
233 239 10 1
234 235 40 1
234 236 50 6
234 237 1 1
234 238 33 2
234 239 40 6
235 236 37 8
235 237 17 7
235 238 43 9
235 239 24 5
236 237 12 7
236 238 28 9
236 239 11 4
237 238 38 5
237 239 39 2
238 239 48 10
242 243 41 6
242 244 42 1
242 245 48 7
243 244 30 4
243 245 26 2
244 245 49 9
246 247 24 3
248 249 42 2
248 250 50 9
249 250 25 3
251 252 42 5
253 254 13 1
253 255 8 6
253 256 18 10
254 255 30 2
254 256 18 3
255 256 2 5
257 258 46 8
257 259 50 10
258 259 26 4
260 268 43 2
260 265 6 2
260 261 35 9
260 262 44 9
260 263 16 1
261 284 16 8
261 283 17 2
261 276 48 2
261 275 18 1
261 271 43 10
261 262 21 10
261 263 29 3
262 285 24 4
262 263 4 4
263 299 41 6
263 294 18 6
263 291 26 5
263 288 9 10
264 265 37 7
266 267 33 7
266 268 49 1
266 269 50 2
267 268 28 9
267 269 48 10
268 269 42 9
270 271 38 6
272 273 39 4
272 274 45 2
272 275 4 8
273 274 32 5
273 275 21 8
274 275 30 1
276 277 43 4
276 278 27 8
276 279 14 6
276 280 28 10
276 281 31 10
277 278 50 8
277 279 37 9
277 280 8 5
277 281 41 4
278 279 14 6
278 280 41 7
278 281 25 4
279 280 21 9
279 281 37 9
280 281 47 1
282 283 45 10
285 286 6 9
285 287 11 1
286 287 19 6
288 289 21 2
290 291 19 2
290 292 12 6
290 293 36 9
291 292 2 9
291 293 38 7
292 293 26 3
294 295 17 6
294 296 45 10
294 297 9 4
294 298 3 10
295 296 23 5
295 297 14 7
295 298 27 10
296 297 8 2
296 298 42 9
297 298 15 5
121 29 30 7
1 263 47 8
120 25 38 7
126 210 3 3
127 263 12 1
262 1 34 6
124 0 30 10
1 120 11 6
122 21 11 10
260 214 20 6
26 219 38 4
29 235 40 2
262 182 25 1
25 254 41 7
210 235 38 1
262 43 29 2
200 252 34 6
0 54 31 10
122 196 34 10
214 44 12 1
213 180 10 4
24 276 17 1
121 106 14 8
0 281 15 6
126 276 30 6
127 44 38 9
124 69 46 10
262 7 17 8
214 276 37 10
120 109 17 7
261 84 15 1
125 272 4 2
28 171 37 5
27 275 45 5
213 54 14 3
263 209 11 5
121 136 24 1
122 144 40 5
261 171 43 3
126 158 47 5
25 155 37 1
120 277 10 3
127 153 24 1
261 80 2 8
212 140 38 9
122 91 30 6
21 44 48 2
22 296 24 6
20 135 45 1
214 176 44 1
262 257 7 3
125 222 17 3
120 114 12 3
122 181 4 5
120 61 32 7
21 206 44 5
24 290 35 6
23 5 11 1
21 229 7 3
21 299 20 8
263 82 49 7
262 265 20 1
210 241 6 2
29 90 46 6
29 254 18 10
20 226 47 1
1 291 12 8
21 196 15 9
200 85 8 3
121 42 34 8
122 177 42 4
213 105 35 4
262 35 12 4
123 169 1 4
121 207 29 4
212 165 29 7
261 52 5 2
200 77 9 3
124 246 12 5
126 264 25 2
122 151 21 2
123 9 44 10
29 30 7 6
121 117 22 10
122 16 22 6
20 285 16 7
212 95 41 9
262 48 3 3
212 292 10 4
212 137 18 7
28 264 33 5
200 224 29 1
123 108 22 4
213 128 35 4
126 102 35 3
260 295 46 3
260 235 49 8
210 247 23 5
211 226 49 5
210 249 10 2
27 104 35 3
26 69 37 8
214 136 46 7
213 87 5 5
20 275 32 4
214 143 24 10
126 33 33 10
200 118 2 9
260 291 9 5
28 137 4 2
120 73 25 9
28 74 27 9
26 164 20 8
25 187 11 5
21 285 23 1
29 156 19 1
22 74 5 10
262 112 31 4
125 277 16 7
263 10 17 4
124 92 32 10
1 249 27 9
29 209 35 1
214 64 15 8
120 51 19 2
28 96 13 8
121 13 25 4
24 175 9 5
23 204 30 7
22 129 4 8
213 43 42 2
127 11 18 3
27 166 34 3
210 75 14 6
26 142 39 6
262 279 38 4
211 2 18 8
127 92 16 2
214 68 43 4
127 65 5 4
21 165 44 3
211 89 32 4
200 184 5 4
126 192 47 4
213 142 6 1
261 196 1 4
120 244 42 5
125 217 17 7
0 252 47 6
123 209 47 7
263 271 3 10
125 187 12 9
125 33 23 3
213 167 45 7
29 216 13 6
1 43 12 3
200 298 6 9
212 72 23 3
21 250 30 4
126 15 38 3
29 265 18 6
21 144 23 9
212 32 43 4
261 61 50 4
214 182 9 3
22 235 35 8
261 42 30 10
25 70 43 9
25 278 23 10
123 56 1 10
260 206 46 2
200 39 40 2
262 103 22 8
22 131 45 7
125 209 31 4
1 269 26 1
200 79 1 3
25 256 38 6
262 227 39 6
1 134 22 8
22 297 29 1
0 157 46 2
210 59 1 5
261 97 45 1
124 274 14 9
212 238 40 6
263 37 5 6
29 208 30 8
125 100 13 4
127 95 4 6
126 109 35 1
24 33 46 9
125 112 5 5
26 117 28 10
23 197 6 7
124 241 26 10
213 292 49 4
261 297 12 10
0 147 48 9
0 85 45 10
124 221 45 4
24 171 28 4
26 168 5 1
28 154 27 10
127 237 10 4
261 85 45 7
124 71 43 7
214 267 3 4
0 218 11 3
260 30 38 2
260 150 14 8
125 293 3 3
124 139 37 6
0 235 46 6
1 167 30 6
0 117 20 9
125 56 22 5
212 206 20 6
25 117 23 9
1 94 15 5
212 5 31 1
214 197 49 10
124 255 19 4
127 252 2 10
1 296 11 2
210 238 49 6
211 144 43 10
25 226 9 7
124 192 6 1
127 259 45 1
1 177 15 3
26 16 45 9
260 18 11 5
25 161 41 5
210 274 46 3
26 113 2 5
213 289 7 9
23 174 6 4
211 84 47 1
211 288 49 4
213 52 40 4
23 50 16 2
263 289 25 4
211 188 27 8
0 106 17 5
260 144 43 7
211 117 42 7
260 208 48 8
211 134 16 8
210 97 33 2
211 160 20 9
211 293 33 9
23 66 15 6
23 39 17 3
263 9 37 6
23 249 14 5
260 197 12 1
263 128 4 3
260 279 19 3
210 234 35 9
210 227 47 8
210 162 18 10
260 105 8 3
260 273 43 7
148 47 13 4
219 217 49 3
40 160 38 7
182 177 13 9
60 254 17 1
131 159 50 7
235 40 18 9
198 43 4 3
190 138 4 10
252 236 1 9
3 54 22 7
116 273 37 6
196 67 1 10
52 44 22 3
66 240 28 2
180 207 5 5
94 276 47 4
85 194 17 3
106 2 42 10
105 281 38 9
30 292 7 8
276 31 5 6
135 44 41 10
88 18 44 4
274 7 22 10
165 184 31 2
276 218 12 7
176 109 7 2
233 16 44 1
84 157 6 4
96 272 15 3
150 70 46 9
171 81 8 3
84 275 28 1
264 81 28 8
54 71 23 5
198 209 27 8
283 259 21 7
136 56 30 10
201 144 6 8
167 163 5 1
171 30 25 3
50 158 24 9
9 179 44 3
155 114 2 4
190 277 19 5
255 151 38 7
153 233 38 8
111 80 4 7
259 176 31 5
140 86 25 4
53 91 3 8
45 128 2 8
44 144 36 8
172 296 6 1
142 60 17 7
135 97 22 5
12 176 42 7
70 49 25 7
257 223 10 5
87 222 49 3
114 94 24 2
114 56 34 4
279 181 9 9
14 154 33 10
61 45 15 1
222 206 3 9
242 166 14 7
290 107 50 2
293 5 2 7
173 171 18 6
229 143 6 6
47 299 12 2
299 173 5 9
82 40 17 3
52 265 23 9
291 222 10 8
241 281 19 6
11 90 35 1
217 155 8 2
254 238 46 5
241 226 39 1
73 75 43 7
291 42 3 5
150 281 31 5
239 61 20 1
196 130 21 9
12 85 37 6
55 242 7 1
42 16 11 10
56 177 8 1
230 43 20 7
105 138 27 2
33 35 6 1
57 198 31 4
169 85 24 10
189 207 27 6
65 293 33 7
165 99 26 2
67 52 25 5
92 17 29 10
77 88 35 1
151 246 46 10
90 84 41 5
264 16 14 6
92 151 41 10
285 225 46 3
9 13 26 10
6 30 31 8
115 5 32 4
117 16 11 8
185 16 7 7
158 195 7 8
285 277 15 6
98 95 27 10
142 204 27 4
48 296 46 5
77 292 37 1
111 177 49 3
137 111 43 10
248 264 24 3
161 5 22 10
224 41 20 5
174 108 37 5
50 11 30 7
128 237 37 9
247 102 25 6
61 38 35 4
295 33 9 5
225 235 42 5
93 146 29 6
247 241 33 2
116 226 50 6
156 8 47 1
249 6 43 7
287 104 29 7
267 68 25 10
69 144 15 1
240 136 14 5
231 70 37 3
87 221 41 10
98 275 34 5
79 95 32 1
246 143 27 4
18 218 30 6
33 166 6 10
277 118 37 8
32 102 39 8
291 169 18 5
33 137 35 9
181 182 19 4
73 163 22 3
185 74 27 9
139 119 17 2
164 172 20 6
170 187 33 2
84 183 23 7
285 132 34 6
223 156 18 7
255 133 4 4
74 172 8 1
15 112 27 2
208 110 49 7
277 131 20 2
292 10 20 4
186 93 48 7
92 55 5 6
296 249 27 5
116 97 7 4
209 89 7 6
82 64 10 6
135 119 34 10
51 101 4 6
232 96 6 4
50 63 47 5
13 160 10 9
218 175 28 4
132 108 33 9
204 96 36 2
58 129 42 8
87 271 43 6
43 144 20 4
248 11 30 8
163 252 23 6
166 103 18 7
270 75 16 10
145 106 40 1
142 112 6 6
166 279 23 6
236 254 6 4
2 135 44 6
62 92 13 4
163 141 10 7
68 231 29 1
272 65 25 3
266 149 12 9
99 89 50 8
184 30 28 3
167 192 7 3
30 201 5 9
142 239 4 1
246 196 33 4
52 70 25 2
244 152 11 5
57 217 46 4
42 63 36 7
252 72 12 1
283 209 3 10
56 99 46 2
271 99 41 1
192 187 38 9
203 108 7 8
33 284 49 3
36 167 20 7
225 65 23 9
216 113 18 10
77 43 25 10
135 240 28 2
298 130 25 2
297 64 41 3
204 225 23 5
72 89 14 2
45 250 42 10
168 196 16 6
15 81 38 1
149 265 22 8
19 34 31 10
144 157 26 8
17 32 22 7
227 245 22 1
61 9 45 6
10 182 33 10
80 287 38 2
235 137 40 9
55 42 38 2
133 129 29 9
70 157 6 4
154 278 42 2
273 294 40 4
56 215 22 4
247 206 8 10
110 47 38 2
39 107 8 3
101 103 36 5
103 239 23 8
131 248 25 10
292 209 1 8
76 149 38 5
269 259 22 10
236 79 43 5
101 279 16 8
256 34 25 7
281 227 10 4
12 82 22 4
134 10 23 9
116 297 19 2
226 271 21 7
157 162 11 6
111 59 32 3
148 91 35 5
97 209 17 9
269 274 27 6
16 156 46 3
238 199 10 7
287 37 33 7
208 247 9 4
208 97 38 9
238 100 40 3
66 182 33 7
95 187 3 7
56 109 50 10
131 5 30 8
33 232 38 1
238 112 35 9
151 176 14 8
117 104 46 8
184 197 4 6
271 67 38 6
241 177 23 1
153 292 26 3
100 187 19 4
297 30 11 4
64 147 44 3
182 293 19 3
85 231 4 6
107 221 1 10
245 246 32 8
171 236 34 1
232 168 44 5
37 162 46 10
154 223 43 9
284 237 38 9
236 7 6 7
85 107 7 7
91 71 8 9
114 40 22 8
267 17 33 4
7 218 37 5
100 202 26 2
30 198 6 5

0 298 42
1 264 53
2 61 109
3 221 132
4 270 35
5 109 35
6 172 29
7 164 18
8 30 109
9 152 18
10 86 52
11 252 109
12 246 73
13 294 31
14 234 67
15 165 129
16 114 43
17 79 53
18 4 12
19 31 38
20 204 156
21 240 32
22 146 32
23 43 52
24 8 56
25 162 46
26 258 48
27 102 91
28 244 48
29 81 47
30 87 127
31 186 68
32 73 41
33 3 63
34 95 46
35 187 88
36 111 69
37 229 39
38 66 72
39 38 77
40 283 19
41 182 103
42 68 81
43 45 61
44 67 35
45 119 22
46 17 116
47 60 15
48 203 96
49 171 92
50 54 43
51 91 52
52 104 46
53 230 26
54 282 26
55 173 34
56 133 72
57 295 59
58 13 143
59 53 34
60 220 62
61 153 89
62 257 39
63 288 26
64 188 64
65 106 80
66 69 80
67 56 93
68 44 51
69 292 100
70 289 21
71 222 123
72 70 59
73 236 62
74 249 75
75 39 41
76 273 79
77 238 194
78 250 32
79 293 116
80 201 10
81 72 66
82 89 49
83 112 84
84 226 197
85 88 71
86 99 54
87 225 59
88 285 54
89 286 12
90 180 95
91 80 65
92 267 87
93 183 35
94 76 24
95 190 34
96 141 93
97 197 51
98 113 77
99 217 69
100 134 45
101 276 124
102 209 85
103 58 38
104 156 69
105 144 113
106 255 61
107 287 79
108 167 206
109 176 66
110 105 53
111 49 53
112 239 139
113 253 49
114 117 108
115 142 186
116 62 61
117 96 63
118 168 135
119 48 51
120 65 27
121 64 60
122 242 34
123 268 33
124 9 170
125 272 44
126 98 74
127 184 31
128 265 76
129 101 81
130 128 39
131 232 88
132 218 107
133 6 74
134 161 25
